<?xml version="1.0" encoding="utf-8" standalone="no"?>
<!DOCTYPE svg PUBLIC "-//W3C//DTD SVG 1.1//EN"
  "http://www.w3.org/Graphics/SVG/1.1/DTD/svg11.dtd">
<svg xmlns:xlink="http://www.w3.org/1999/xlink" width="460.8pt" height="633.6pt" viewBox="0 0 460.8 633.6" xmlns="http://www.w3.org/2000/svg" version="1.1">
 <metadata>
  <rdf:RDF xmlns:dc="http://purl.org/dc/elements/1.1/" xmlns:cc="http://creativecommons.org/ns#" xmlns:rdf="http://www.w3.org/1999/02/22-rdf-syntax-ns#">
   <cc:Work>
    <dc:type rdf:resource="http://purl.org/dc/dcmitype/StillImage"/>
    <dc:date>2022-04-06T17:13:47.953037</dc:date>
    <dc:format>image/svg+xml</dc:format>
    <dc:creator>
     <cc:Agent>
      <dc:title>Matplotlib v3.5.1, https://matplotlib.org/</dc:title>
     </cc:Agent>
    </dc:creator>
   </cc:Work>
  </rdf:RDF>
 </metadata>
 <defs>
  <style type="text/css">*{stroke-linejoin: round; stroke-linecap: butt}</style>
 </defs>
 <g id="figure_1">
  <g id="patch_1">
   <path d="M 0 633.6 
L 460.8 633.6 
L 460.8 0 
L 0 0 
z
" style="fill: #ffffff"/>
  </g>
  <g id="axes_1">
   <g id="patch_2">
    <path d="M 47.38125 456.492188 
L 450 456.492188 
L 450 14.599219 
L 47.38125 14.599219 
z
" style="fill: #ffffff"/>
   </g>
   <g id="patch_3">
    <path d="M 97.708594 456.492188 
L 110.29043 456.492188 
L 110.29043 218.993327 
L 97.708594 218.993327 
z
" clip-path="url(#pb56b1c663e)" style="fill: #1f77b4"/>
   </g>
   <g id="patch_4">
    <path d="M 299.017969 456.492188 
L 311.599805 456.492188 
L 311.599805 154.456911 
L 299.017969 154.456911 
z
" clip-path="url(#pb56b1c663e)" style="fill: #1f77b4"/>
   </g>
   <g id="patch_5">
    <path d="M 110.29043 456.492188 
L 122.872266 456.492188 
L 122.872266 282.44734 
L 110.29043 282.44734 
z
" clip-path="url(#pb56b1c663e)" style="fill: #ff7f0e"/>
   </g>
   <g id="patch_6">
    <path d="M 311.599805 456.492188 
L 324.181641 456.492188 
L 324.181641 157.749547 
L 311.599805 157.749547 
z
" clip-path="url(#pb56b1c663e)" style="fill: #ff7f0e"/>
   </g>
   <g id="patch_7">
    <path d="M 122.872266 456.492188 
L 135.454102 456.492188 
L 135.454102 216.269418 
L 122.872266 216.269418 
z
" clip-path="url(#pb56b1c663e)" style="fill: #2ca02c"/>
   </g>
   <g id="patch_8">
    <path d="M 324.181641 456.492188 
L 336.763477 456.492188 
L 336.763477 144.608917 
L 324.181641 144.608917 
z
" clip-path="url(#pb56b1c663e)" style="fill: #2ca02c"/>
   </g>
   <g id="patch_9">
    <path d="M 135.454102 456.492188 
L 148.035937 456.492188 
L 148.035937 332.791893 
L 135.454102 332.791893 
z
" clip-path="url(#pb56b1c663e)" style="fill: #d62728"/>
   </g>
   <g id="patch_10">
    <path d="M 336.763477 456.492188 
L 349.345312 456.492188 
L 349.345312 297.501631 
L 336.763477 297.501631 
z
" clip-path="url(#pb56b1c663e)" style="fill: #d62728"/>
   </g>
   <g id="patch_11">
    <path d="M 148.035937 456.492188 
L 160.617773 456.492188 
L 160.617773 262.259332 
L 148.035937 262.259332 
z
" clip-path="url(#pb56b1c663e)" style="fill: #9467bd"/>
   </g>
   <g id="patch_12">
    <path d="M 349.345312 456.492188 
L 361.927148 456.492188 
L 361.927148 126.517701 
L 349.345312 126.517701 
z
" clip-path="url(#pb56b1c663e)" style="fill: #9467bd"/>
   </g>
   <g id="patch_13">
    <path d="M 160.617773 456.492188 
L 173.199609 456.492188 
L 173.199609 251.595622 
L 160.617773 251.595622 
z
" clip-path="url(#pb56b1c663e)" style="fill: #8c564b"/>
   </g>
   <g id="patch_14">
    <path d="M 361.927148 456.492188 
L 374.508984 456.492188 
L 374.508984 124.133056 
L 361.927148 124.133056 
z
" clip-path="url(#pb56b1c663e)" style="fill: #8c564b"/>
   </g>
   <g id="patch_15">
    <path d="M 173.199609 456.492188 
L 185.781445 456.492188 
L 185.781445 230.452154 
L 173.199609 230.452154 
z
" clip-path="url(#pb56b1c663e)" style="fill: #e377c2"/>
   </g>
   <g id="patch_16">
    <path d="M 374.508984 456.492188 
L 387.09082 456.492188 
L 387.09082 166.313332 
L 374.508984 166.313332 
z
" clip-path="url(#pb56b1c663e)" style="fill: #e377c2"/>
   </g>
   <g id="patch_17">
    <path d="M 185.781445 456.492188 
L 198.363281 456.492188 
L 198.363281 214.613294 
L 185.781445 214.613294 
z
" clip-path="url(#pb56b1c663e)" style="fill: #7f7f7f"/>
   </g>
   <g id="patch_18">
    <path d="M 387.09082 456.492188 
L 399.672656 456.492188 
L 399.672656 50.295699 
L 387.09082 50.295699 
z
" clip-path="url(#pb56b1c663e)" style="fill: #7f7f7f"/>
   </g>
   <g id="matplotlib.axis_1">
    <g id="xtick_1">
     <g id="line2d_1">
      <defs>
       <path id="m1c226fad01" d="M 0 0 
L 0 3.5 
" style="stroke: #000000; stroke-width: 0.8"/>
      </defs>
      <g>
       <use xlink:href="#m1c226fad01" x="148.035937" y="456.492188" style="stroke: #000000; stroke-width: 0.8"/>
      </g>
     </g>
     <g id="text_1">
      <!-- (Matching, Unsmoothed) -->
      <g transform="translate(150.795312 587.23125)rotate(-90)scale(0.1 -0.1)">
       <defs>
        <path id="DejaVuSans-28" d="M 1984 4856 
Q 1566 4138 1362 3434 
Q 1159 2731 1159 2009 
Q 1159 1288 1364 580 
Q 1569 -128 1984 -844 
L 1484 -844 
Q 1016 -109 783 600 
Q 550 1309 550 2009 
Q 550 2706 781 3412 
Q 1013 4119 1484 4856 
L 1984 4856 
z
" transform="scale(0.015625)"/>
        <path id="DejaVuSans-4d" d="M 628 4666 
L 1569 4666 
L 2759 1491 
L 3956 4666 
L 4897 4666 
L 4897 0 
L 4281 0 
L 4281 4097 
L 3078 897 
L 2444 897 
L 1241 4097 
L 1241 0 
L 628 0 
L 628 4666 
z
" transform="scale(0.015625)"/>
        <path id="DejaVuSans-61" d="M 2194 1759 
Q 1497 1759 1228 1600 
Q 959 1441 959 1056 
Q 959 750 1161 570 
Q 1363 391 1709 391 
Q 2188 391 2477 730 
Q 2766 1069 2766 1631 
L 2766 1759 
L 2194 1759 
z
M 3341 1997 
L 3341 0 
L 2766 0 
L 2766 531 
Q 2569 213 2275 61 
Q 1981 -91 1556 -91 
Q 1019 -91 701 211 
Q 384 513 384 1019 
Q 384 1609 779 1909 
Q 1175 2209 1959 2209 
L 2766 2209 
L 2766 2266 
Q 2766 2663 2505 2880 
Q 2244 3097 1772 3097 
Q 1472 3097 1187 3025 
Q 903 2953 641 2809 
L 641 3341 
Q 956 3463 1253 3523 
Q 1550 3584 1831 3584 
Q 2591 3584 2966 3190 
Q 3341 2797 3341 1997 
z
" transform="scale(0.015625)"/>
        <path id="DejaVuSans-74" d="M 1172 4494 
L 1172 3500 
L 2356 3500 
L 2356 3053 
L 1172 3053 
L 1172 1153 
Q 1172 725 1289 603 
Q 1406 481 1766 481 
L 2356 481 
L 2356 0 
L 1766 0 
Q 1100 0 847 248 
Q 594 497 594 1153 
L 594 3053 
L 172 3053 
L 172 3500 
L 594 3500 
L 594 4494 
L 1172 4494 
z
" transform="scale(0.015625)"/>
        <path id="DejaVuSans-63" d="M 3122 3366 
L 3122 2828 
Q 2878 2963 2633 3030 
Q 2388 3097 2138 3097 
Q 1578 3097 1268 2742 
Q 959 2388 959 1747 
Q 959 1106 1268 751 
Q 1578 397 2138 397 
Q 2388 397 2633 464 
Q 2878 531 3122 666 
L 3122 134 
Q 2881 22 2623 -34 
Q 2366 -91 2075 -91 
Q 1284 -91 818 406 
Q 353 903 353 1747 
Q 353 2603 823 3093 
Q 1294 3584 2113 3584 
Q 2378 3584 2631 3529 
Q 2884 3475 3122 3366 
z
" transform="scale(0.015625)"/>
        <path id="DejaVuSans-68" d="M 3513 2113 
L 3513 0 
L 2938 0 
L 2938 2094 
Q 2938 2591 2744 2837 
Q 2550 3084 2163 3084 
Q 1697 3084 1428 2787 
Q 1159 2491 1159 1978 
L 1159 0 
L 581 0 
L 581 4863 
L 1159 4863 
L 1159 2956 
Q 1366 3272 1645 3428 
Q 1925 3584 2291 3584 
Q 2894 3584 3203 3211 
Q 3513 2838 3513 2113 
z
" transform="scale(0.015625)"/>
        <path id="DejaVuSans-69" d="M 603 3500 
L 1178 3500 
L 1178 0 
L 603 0 
L 603 3500 
z
M 603 4863 
L 1178 4863 
L 1178 4134 
L 603 4134 
L 603 4863 
z
" transform="scale(0.015625)"/>
        <path id="DejaVuSans-6e" d="M 3513 2113 
L 3513 0 
L 2938 0 
L 2938 2094 
Q 2938 2591 2744 2837 
Q 2550 3084 2163 3084 
Q 1697 3084 1428 2787 
Q 1159 2491 1159 1978 
L 1159 0 
L 581 0 
L 581 3500 
L 1159 3500 
L 1159 2956 
Q 1366 3272 1645 3428 
Q 1925 3584 2291 3584 
Q 2894 3584 3203 3211 
Q 3513 2838 3513 2113 
z
" transform="scale(0.015625)"/>
        <path id="DejaVuSans-67" d="M 2906 1791 
Q 2906 2416 2648 2759 
Q 2391 3103 1925 3103 
Q 1463 3103 1205 2759 
Q 947 2416 947 1791 
Q 947 1169 1205 825 
Q 1463 481 1925 481 
Q 2391 481 2648 825 
Q 2906 1169 2906 1791 
z
M 3481 434 
Q 3481 -459 3084 -895 
Q 2688 -1331 1869 -1331 
Q 1566 -1331 1297 -1286 
Q 1028 -1241 775 -1147 
L 775 -588 
Q 1028 -725 1275 -790 
Q 1522 -856 1778 -856 
Q 2344 -856 2625 -561 
Q 2906 -266 2906 331 
L 2906 616 
Q 2728 306 2450 153 
Q 2172 0 1784 0 
Q 1141 0 747 490 
Q 353 981 353 1791 
Q 353 2603 747 3093 
Q 1141 3584 1784 3584 
Q 2172 3584 2450 3431 
Q 2728 3278 2906 2969 
L 2906 3500 
L 3481 3500 
L 3481 434 
z
" transform="scale(0.015625)"/>
        <path id="DejaVuSans-2c" d="M 750 794 
L 1409 794 
L 1409 256 
L 897 -744 
L 494 -744 
L 750 256 
L 750 794 
z
" transform="scale(0.015625)"/>
        <path id="DejaVuSans-20" transform="scale(0.015625)"/>
        <path id="DejaVuSans-55" d="M 556 4666 
L 1191 4666 
L 1191 1831 
Q 1191 1081 1462 751 
Q 1734 422 2344 422 
Q 2950 422 3222 751 
Q 3494 1081 3494 1831 
L 3494 4666 
L 4128 4666 
L 4128 1753 
Q 4128 841 3676 375 
Q 3225 -91 2344 -91 
Q 1459 -91 1007 375 
Q 556 841 556 1753 
L 556 4666 
z
" transform="scale(0.015625)"/>
        <path id="DejaVuSans-73" d="M 2834 3397 
L 2834 2853 
Q 2591 2978 2328 3040 
Q 2066 3103 1784 3103 
Q 1356 3103 1142 2972 
Q 928 2841 928 2578 
Q 928 2378 1081 2264 
Q 1234 2150 1697 2047 
L 1894 2003 
Q 2506 1872 2764 1633 
Q 3022 1394 3022 966 
Q 3022 478 2636 193 
Q 2250 -91 1575 -91 
Q 1294 -91 989 -36 
Q 684 19 347 128 
L 347 722 
Q 666 556 975 473 
Q 1284 391 1588 391 
Q 1994 391 2212 530 
Q 2431 669 2431 922 
Q 2431 1156 2273 1281 
Q 2116 1406 1581 1522 
L 1381 1569 
Q 847 1681 609 1914 
Q 372 2147 372 2553 
Q 372 3047 722 3315 
Q 1072 3584 1716 3584 
Q 2034 3584 2315 3537 
Q 2597 3491 2834 3397 
z
" transform="scale(0.015625)"/>
        <path id="DejaVuSans-6d" d="M 3328 2828 
Q 3544 3216 3844 3400 
Q 4144 3584 4550 3584 
Q 5097 3584 5394 3201 
Q 5691 2819 5691 2113 
L 5691 0 
L 5113 0 
L 5113 2094 
Q 5113 2597 4934 2840 
Q 4756 3084 4391 3084 
Q 3944 3084 3684 2787 
Q 3425 2491 3425 1978 
L 3425 0 
L 2847 0 
L 2847 2094 
Q 2847 2600 2669 2842 
Q 2491 3084 2119 3084 
Q 1678 3084 1418 2786 
Q 1159 2488 1159 1978 
L 1159 0 
L 581 0 
L 581 3500 
L 1159 3500 
L 1159 2956 
Q 1356 3278 1631 3431 
Q 1906 3584 2284 3584 
Q 2666 3584 2933 3390 
Q 3200 3197 3328 2828 
z
" transform="scale(0.015625)"/>
        <path id="DejaVuSans-6f" d="M 1959 3097 
Q 1497 3097 1228 2736 
Q 959 2375 959 1747 
Q 959 1119 1226 758 
Q 1494 397 1959 397 
Q 2419 397 2687 759 
Q 2956 1122 2956 1747 
Q 2956 2369 2687 2733 
Q 2419 3097 1959 3097 
z
M 1959 3584 
Q 2709 3584 3137 3096 
Q 3566 2609 3566 1747 
Q 3566 888 3137 398 
Q 2709 -91 1959 -91 
Q 1206 -91 779 398 
Q 353 888 353 1747 
Q 353 2609 779 3096 
Q 1206 3584 1959 3584 
z
" transform="scale(0.015625)"/>
        <path id="DejaVuSans-65" d="M 3597 1894 
L 3597 1613 
L 953 1613 
Q 991 1019 1311 708 
Q 1631 397 2203 397 
Q 2534 397 2845 478 
Q 3156 559 3463 722 
L 3463 178 
Q 3153 47 2828 -22 
Q 2503 -91 2169 -91 
Q 1331 -91 842 396 
Q 353 884 353 1716 
Q 353 2575 817 3079 
Q 1281 3584 2069 3584 
Q 2775 3584 3186 3129 
Q 3597 2675 3597 1894 
z
M 3022 2063 
Q 3016 2534 2758 2815 
Q 2500 3097 2075 3097 
Q 1594 3097 1305 2825 
Q 1016 2553 972 2059 
L 3022 2063 
z
" transform="scale(0.015625)"/>
        <path id="DejaVuSans-64" d="M 2906 2969 
L 2906 4863 
L 3481 4863 
L 3481 0 
L 2906 0 
L 2906 525 
Q 2725 213 2448 61 
Q 2172 -91 1784 -91 
Q 1150 -91 751 415 
Q 353 922 353 1747 
Q 353 2572 751 3078 
Q 1150 3584 1784 3584 
Q 2172 3584 2448 3432 
Q 2725 3281 2906 2969 
z
M 947 1747 
Q 947 1113 1208 752 
Q 1469 391 1925 391 
Q 2381 391 2643 752 
Q 2906 1113 2906 1747 
Q 2906 2381 2643 2742 
Q 2381 3103 1925 3103 
Q 1469 3103 1208 2742 
Q 947 2381 947 1747 
z
" transform="scale(0.015625)"/>
        <path id="DejaVuSans-29" d="M 513 4856 
L 1013 4856 
Q 1481 4119 1714 3412 
Q 1947 2706 1947 2009 
Q 1947 1309 1714 600 
Q 1481 -109 1013 -844 
L 513 -844 
Q 928 -128 1133 580 
Q 1338 1288 1338 2009 
Q 1338 2731 1133 3434 
Q 928 4138 513 4856 
z
" transform="scale(0.015625)"/>
       </defs>
       <use xlink:href="#DejaVuSans-28"/>
       <use xlink:href="#DejaVuSans-4d" x="39.013672"/>
       <use xlink:href="#DejaVuSans-61" x="125.292969"/>
       <use xlink:href="#DejaVuSans-74" x="186.572266"/>
       <use xlink:href="#DejaVuSans-63" x="225.78125"/>
       <use xlink:href="#DejaVuSans-68" x="280.761719"/>
       <use xlink:href="#DejaVuSans-69" x="344.140625"/>
       <use xlink:href="#DejaVuSans-6e" x="371.923828"/>
       <use xlink:href="#DejaVuSans-67" x="435.302734"/>
       <use xlink:href="#DejaVuSans-2c" x="498.779297"/>
       <use xlink:href="#DejaVuSans-20" x="530.566406"/>
       <use xlink:href="#DejaVuSans-55" x="562.353516"/>
       <use xlink:href="#DejaVuSans-6e" x="635.546875"/>
       <use xlink:href="#DejaVuSans-73" x="698.925781"/>
       <use xlink:href="#DejaVuSans-6d" x="751.025391"/>
       <use xlink:href="#DejaVuSans-6f" x="848.4375"/>
       <use xlink:href="#DejaVuSans-6f" x="909.619141"/>
       <use xlink:href="#DejaVuSans-74" x="970.800781"/>
       <use xlink:href="#DejaVuSans-68" x="1010.009766"/>
       <use xlink:href="#DejaVuSans-65" x="1073.388672"/>
       <use xlink:href="#DejaVuSans-64" x="1134.912109"/>
       <use xlink:href="#DejaVuSans-29" x="1198.388672"/>
      </g>
     </g>
    </g>
    <g id="xtick_2">
     <g id="line2d_2">
      <g>
       <use xlink:href="#m1c226fad01" x="349.345312" y="456.492188" style="stroke: #000000; stroke-width: 0.8"/>
      </g>
     </g>
     <g id="text_2">
      <!-- (VanekBrezina, Unsmoothed) -->
      <g transform="translate(352.104687 609.121875)rotate(-90)scale(0.1 -0.1)">
       <defs>
        <path id="DejaVuSans-56" d="M 1831 0 
L 50 4666 
L 709 4666 
L 2188 738 
L 3669 4666 
L 4325 4666 
L 2547 0 
L 1831 0 
z
" transform="scale(0.015625)"/>
        <path id="DejaVuSans-6b" d="M 581 4863 
L 1159 4863 
L 1159 1991 
L 2875 3500 
L 3609 3500 
L 1753 1863 
L 3688 0 
L 2938 0 
L 1159 1709 
L 1159 0 
L 581 0 
L 581 4863 
z
" transform="scale(0.015625)"/>
        <path id="DejaVuSans-42" d="M 1259 2228 
L 1259 519 
L 2272 519 
Q 2781 519 3026 730 
Q 3272 941 3272 1375 
Q 3272 1813 3026 2020 
Q 2781 2228 2272 2228 
L 1259 2228 
z
M 1259 4147 
L 1259 2741 
L 2194 2741 
Q 2656 2741 2882 2914 
Q 3109 3088 3109 3444 
Q 3109 3797 2882 3972 
Q 2656 4147 2194 4147 
L 1259 4147 
z
M 628 4666 
L 2241 4666 
Q 2963 4666 3353 4366 
Q 3744 4066 3744 3513 
Q 3744 3084 3544 2831 
Q 3344 2578 2956 2516 
Q 3422 2416 3680 2098 
Q 3938 1781 3938 1306 
Q 3938 681 3513 340 
Q 3088 0 2303 0 
L 628 0 
L 628 4666 
z
" transform="scale(0.015625)"/>
        <path id="DejaVuSans-72" d="M 2631 2963 
Q 2534 3019 2420 3045 
Q 2306 3072 2169 3072 
Q 1681 3072 1420 2755 
Q 1159 2438 1159 1844 
L 1159 0 
L 581 0 
L 581 3500 
L 1159 3500 
L 1159 2956 
Q 1341 3275 1631 3429 
Q 1922 3584 2338 3584 
Q 2397 3584 2469 3576 
Q 2541 3569 2628 3553 
L 2631 2963 
z
" transform="scale(0.015625)"/>
        <path id="DejaVuSans-7a" d="M 353 3500 
L 3084 3500 
L 3084 2975 
L 922 459 
L 3084 459 
L 3084 0 
L 275 0 
L 275 525 
L 2438 3041 
L 353 3041 
L 353 3500 
z
" transform="scale(0.015625)"/>
       </defs>
       <use xlink:href="#DejaVuSans-28"/>
       <use xlink:href="#DejaVuSans-56" x="39.013672"/>
       <use xlink:href="#DejaVuSans-61" x="99.671875"/>
       <use xlink:href="#DejaVuSans-6e" x="160.951172"/>
       <use xlink:href="#DejaVuSans-65" x="224.330078"/>
       <use xlink:href="#DejaVuSans-6b" x="285.853516"/>
       <use xlink:href="#DejaVuSans-42" x="343.763672"/>
       <use xlink:href="#DejaVuSans-72" x="412.367188"/>
       <use xlink:href="#DejaVuSans-65" x="451.230469"/>
       <use xlink:href="#DejaVuSans-7a" x="512.753906"/>
       <use xlink:href="#DejaVuSans-69" x="565.244141"/>
       <use xlink:href="#DejaVuSans-6e" x="593.027344"/>
       <use xlink:href="#DejaVuSans-61" x="656.40625"/>
       <use xlink:href="#DejaVuSans-2c" x="717.685547"/>
       <use xlink:href="#DejaVuSans-20" x="749.472656"/>
       <use xlink:href="#DejaVuSans-55" x="781.259766"/>
       <use xlink:href="#DejaVuSans-6e" x="854.453125"/>
       <use xlink:href="#DejaVuSans-73" x="917.832031"/>
       <use xlink:href="#DejaVuSans-6d" x="969.931641"/>
       <use xlink:href="#DejaVuSans-6f" x="1067.34375"/>
       <use xlink:href="#DejaVuSans-6f" x="1128.525391"/>
       <use xlink:href="#DejaVuSans-74" x="1189.707031"/>
       <use xlink:href="#DejaVuSans-68" x="1228.916016"/>
       <use xlink:href="#DejaVuSans-65" x="1292.294922"/>
       <use xlink:href="#DejaVuSans-64" x="1353.818359"/>
       <use xlink:href="#DejaVuSans-29" x="1417.294922"/>
      </g>
     </g>
    </g>
    <g id="text_3">
     <!-- Performance implementazioni Sp[3]MM per classe di input -->
     <g transform="translate(102.526562 620.720312)scale(0.1 -0.1)">
      <defs>
       <path id="DejaVuSans-50" d="M 1259 4147 
L 1259 2394 
L 2053 2394 
Q 2494 2394 2734 2622 
Q 2975 2850 2975 3272 
Q 2975 3691 2734 3919 
Q 2494 4147 2053 4147 
L 1259 4147 
z
M 628 4666 
L 2053 4666 
Q 2838 4666 3239 4311 
Q 3641 3956 3641 3272 
Q 3641 2581 3239 2228 
Q 2838 1875 2053 1875 
L 1259 1875 
L 1259 0 
L 628 0 
L 628 4666 
z
" transform="scale(0.015625)"/>
       <path id="DejaVuSans-66" d="M 2375 4863 
L 2375 4384 
L 1825 4384 
Q 1516 4384 1395 4259 
Q 1275 4134 1275 3809 
L 1275 3500 
L 2222 3500 
L 2222 3053 
L 1275 3053 
L 1275 0 
L 697 0 
L 697 3053 
L 147 3053 
L 147 3500 
L 697 3500 
L 697 3744 
Q 697 4328 969 4595 
Q 1241 4863 1831 4863 
L 2375 4863 
z
" transform="scale(0.015625)"/>
       <path id="DejaVuSans-70" d="M 1159 525 
L 1159 -1331 
L 581 -1331 
L 581 3500 
L 1159 3500 
L 1159 2969 
Q 1341 3281 1617 3432 
Q 1894 3584 2278 3584 
Q 2916 3584 3314 3078 
Q 3713 2572 3713 1747 
Q 3713 922 3314 415 
Q 2916 -91 2278 -91 
Q 1894 -91 1617 61 
Q 1341 213 1159 525 
z
M 3116 1747 
Q 3116 2381 2855 2742 
Q 2594 3103 2138 3103 
Q 1681 3103 1420 2742 
Q 1159 2381 1159 1747 
Q 1159 1113 1420 752 
Q 1681 391 2138 391 
Q 2594 391 2855 752 
Q 3116 1113 3116 1747 
z
" transform="scale(0.015625)"/>
       <path id="DejaVuSans-6c" d="M 603 4863 
L 1178 4863 
L 1178 0 
L 603 0 
L 603 4863 
z
" transform="scale(0.015625)"/>
       <path id="DejaVuSans-53" d="M 3425 4513 
L 3425 3897 
Q 3066 4069 2747 4153 
Q 2428 4238 2131 4238 
Q 1616 4238 1336 4038 
Q 1056 3838 1056 3469 
Q 1056 3159 1242 3001 
Q 1428 2844 1947 2747 
L 2328 2669 
Q 3034 2534 3370 2195 
Q 3706 1856 3706 1288 
Q 3706 609 3251 259 
Q 2797 -91 1919 -91 
Q 1588 -91 1214 -16 
Q 841 59 441 206 
L 441 856 
Q 825 641 1194 531 
Q 1563 422 1919 422 
Q 2459 422 2753 634 
Q 3047 847 3047 1241 
Q 3047 1584 2836 1778 
Q 2625 1972 2144 2069 
L 1759 2144 
Q 1053 2284 737 2584 
Q 422 2884 422 3419 
Q 422 4038 858 4394 
Q 1294 4750 2059 4750 
Q 2388 4750 2728 4690 
Q 3069 4631 3425 4513 
z
" transform="scale(0.015625)"/>
       <path id="DejaVuSans-5b" d="M 550 4863 
L 1875 4863 
L 1875 4416 
L 1125 4416 
L 1125 -397 
L 1875 -397 
L 1875 -844 
L 550 -844 
L 550 4863 
z
" transform="scale(0.015625)"/>
       <path id="DejaVuSans-33" d="M 2597 2516 
Q 3050 2419 3304 2112 
Q 3559 1806 3559 1356 
Q 3559 666 3084 287 
Q 2609 -91 1734 -91 
Q 1441 -91 1130 -33 
Q 819 25 488 141 
L 488 750 
Q 750 597 1062 519 
Q 1375 441 1716 441 
Q 2309 441 2620 675 
Q 2931 909 2931 1356 
Q 2931 1769 2642 2001 
Q 2353 2234 1838 2234 
L 1294 2234 
L 1294 2753 
L 1863 2753 
Q 2328 2753 2575 2939 
Q 2822 3125 2822 3475 
Q 2822 3834 2567 4026 
Q 2313 4219 1838 4219 
Q 1578 4219 1281 4162 
Q 984 4106 628 3988 
L 628 4550 
Q 988 4650 1302 4700 
Q 1616 4750 1894 4750 
Q 2613 4750 3031 4423 
Q 3450 4097 3450 3541 
Q 3450 3153 3228 2886 
Q 3006 2619 2597 2516 
z
" transform="scale(0.015625)"/>
       <path id="DejaVuSans-5d" d="M 1947 4863 
L 1947 -844 
L 622 -844 
L 622 -397 
L 1369 -397 
L 1369 4416 
L 622 4416 
L 622 4863 
L 1947 4863 
z
" transform="scale(0.015625)"/>
       <path id="DejaVuSans-75" d="M 544 1381 
L 544 3500 
L 1119 3500 
L 1119 1403 
Q 1119 906 1312 657 
Q 1506 409 1894 409 
Q 2359 409 2629 706 
Q 2900 1003 2900 1516 
L 2900 3500 
L 3475 3500 
L 3475 0 
L 2900 0 
L 2900 538 
Q 2691 219 2414 64 
Q 2138 -91 1772 -91 
Q 1169 -91 856 284 
Q 544 659 544 1381 
z
M 1991 3584 
L 1991 3584 
z
" transform="scale(0.015625)"/>
      </defs>
      <use xlink:href="#DejaVuSans-50"/>
      <use xlink:href="#DejaVuSans-65" x="56.677734"/>
      <use xlink:href="#DejaVuSans-72" x="118.201172"/>
      <use xlink:href="#DejaVuSans-66" x="159.314453"/>
      <use xlink:href="#DejaVuSans-6f" x="194.519531"/>
      <use xlink:href="#DejaVuSans-72" x="255.701172"/>
      <use xlink:href="#DejaVuSans-6d" x="295.064453"/>
      <use xlink:href="#DejaVuSans-61" x="392.476562"/>
      <use xlink:href="#DejaVuSans-6e" x="453.755859"/>
      <use xlink:href="#DejaVuSans-63" x="517.134766"/>
      <use xlink:href="#DejaVuSans-65" x="572.115234"/>
      <use xlink:href="#DejaVuSans-20" x="633.638672"/>
      <use xlink:href="#DejaVuSans-69" x="665.425781"/>
      <use xlink:href="#DejaVuSans-6d" x="693.208984"/>
      <use xlink:href="#DejaVuSans-70" x="790.621094"/>
      <use xlink:href="#DejaVuSans-6c" x="854.097656"/>
      <use xlink:href="#DejaVuSans-65" x="881.880859"/>
      <use xlink:href="#DejaVuSans-6d" x="943.404297"/>
      <use xlink:href="#DejaVuSans-65" x="1040.816406"/>
      <use xlink:href="#DejaVuSans-6e" x="1102.339844"/>
      <use xlink:href="#DejaVuSans-74" x="1165.71875"/>
      <use xlink:href="#DejaVuSans-61" x="1204.927734"/>
      <use xlink:href="#DejaVuSans-7a" x="1266.207031"/>
      <use xlink:href="#DejaVuSans-69" x="1318.697266"/>
      <use xlink:href="#DejaVuSans-6f" x="1346.480469"/>
      <use xlink:href="#DejaVuSans-6e" x="1407.662109"/>
      <use xlink:href="#DejaVuSans-69" x="1471.041016"/>
      <use xlink:href="#DejaVuSans-20" x="1498.824219"/>
      <use xlink:href="#DejaVuSans-53" x="1530.611328"/>
      <use xlink:href="#DejaVuSans-70" x="1594.087891"/>
      <use xlink:href="#DejaVuSans-5b" x="1657.564453"/>
      <use xlink:href="#DejaVuSans-33" x="1696.578125"/>
      <use xlink:href="#DejaVuSans-5d" x="1760.201172"/>
      <use xlink:href="#DejaVuSans-4d" x="1799.214844"/>
      <use xlink:href="#DejaVuSans-4d" x="1885.494141"/>
      <use xlink:href="#DejaVuSans-20" x="1971.773438"/>
      <use xlink:href="#DejaVuSans-70" x="2003.560547"/>
      <use xlink:href="#DejaVuSans-65" x="2067.037109"/>
      <use xlink:href="#DejaVuSans-72" x="2128.560547"/>
      <use xlink:href="#DejaVuSans-20" x="2169.673828"/>
      <use xlink:href="#DejaVuSans-63" x="2201.460938"/>
      <use xlink:href="#DejaVuSans-6c" x="2256.441406"/>
      <use xlink:href="#DejaVuSans-61" x="2284.224609"/>
      <use xlink:href="#DejaVuSans-73" x="2345.503906"/>
      <use xlink:href="#DejaVuSans-73" x="2397.603516"/>
      <use xlink:href="#DejaVuSans-65" x="2449.703125"/>
      <use xlink:href="#DejaVuSans-20" x="2511.226562"/>
      <use xlink:href="#DejaVuSans-64" x="2543.013672"/>
      <use xlink:href="#DejaVuSans-69" x="2606.490234"/>
      <use xlink:href="#DejaVuSans-20" x="2634.273438"/>
      <use xlink:href="#DejaVuSans-69" x="2666.060547"/>
      <use xlink:href="#DejaVuSans-6e" x="2693.84375"/>
      <use xlink:href="#DejaVuSans-70" x="2757.222656"/>
      <use xlink:href="#DejaVuSans-75" x="2820.699219"/>
      <use xlink:href="#DejaVuSans-74" x="2884.078125"/>
     </g>
    </g>
   </g>
   <g id="matplotlib.axis_2">
    <g id="ytick_1">
     <g id="line2d_3">
      <defs>
       <path id="mac6f878a4c" d="M 0 0 
L -3.5 0 
" style="stroke: #000000; stroke-width: 0.8"/>
      </defs>
      <g>
       <use xlink:href="#mac6f878a4c" x="47.38125" y="456.492188" style="stroke: #000000; stroke-width: 0.8"/>
      </g>
     </g>
     <g id="text_4">
      <!-- 0.0 -->
      <g transform="translate(24.478125 460.291406)scale(0.1 -0.1)">
       <defs>
        <path id="DejaVuSans-30" d="M 2034 4250 
Q 1547 4250 1301 3770 
Q 1056 3291 1056 2328 
Q 1056 1369 1301 889 
Q 1547 409 2034 409 
Q 2525 409 2770 889 
Q 3016 1369 3016 2328 
Q 3016 3291 2770 3770 
Q 2525 4250 2034 4250 
z
M 2034 4750 
Q 2819 4750 3233 4129 
Q 3647 3509 3647 2328 
Q 3647 1150 3233 529 
Q 2819 -91 2034 -91 
Q 1250 -91 836 529 
Q 422 1150 422 2328 
Q 422 3509 836 4129 
Q 1250 4750 2034 4750 
z
" transform="scale(0.015625)"/>
        <path id="DejaVuSans-2e" d="M 684 794 
L 1344 794 
L 1344 0 
L 684 0 
L 684 794 
z
" transform="scale(0.015625)"/>
       </defs>
       <use xlink:href="#DejaVuSans-30"/>
       <use xlink:href="#DejaVuSans-2e" x="63.623047"/>
       <use xlink:href="#DejaVuSans-30" x="95.410156"/>
      </g>
     </g>
    </g>
    <g id="ytick_2">
     <g id="line2d_4">
      <g>
       <use xlink:href="#mac6f878a4c" x="47.38125" y="368.113594" style="stroke: #000000; stroke-width: 0.8"/>
      </g>
     </g>
     <g id="text_5">
      <!-- 0.2 -->
      <g transform="translate(24.478125 371.912813)scale(0.1 -0.1)">
       <defs>
        <path id="DejaVuSans-32" d="M 1228 531 
L 3431 531 
L 3431 0 
L 469 0 
L 469 531 
Q 828 903 1448 1529 
Q 2069 2156 2228 2338 
Q 2531 2678 2651 2914 
Q 2772 3150 2772 3378 
Q 2772 3750 2511 3984 
Q 2250 4219 1831 4219 
Q 1534 4219 1204 4116 
Q 875 4013 500 3803 
L 500 4441 
Q 881 4594 1212 4672 
Q 1544 4750 1819 4750 
Q 2544 4750 2975 4387 
Q 3406 4025 3406 3419 
Q 3406 3131 3298 2873 
Q 3191 2616 2906 2266 
Q 2828 2175 2409 1742 
Q 1991 1309 1228 531 
z
" transform="scale(0.015625)"/>
       </defs>
       <use xlink:href="#DejaVuSans-30"/>
       <use xlink:href="#DejaVuSans-2e" x="63.623047"/>
       <use xlink:href="#DejaVuSans-32" x="95.410156"/>
      </g>
     </g>
    </g>
    <g id="ytick_3">
     <g id="line2d_5">
      <g>
       <use xlink:href="#mac6f878a4c" x="47.38125" y="279.735" style="stroke: #000000; stroke-width: 0.8"/>
      </g>
     </g>
     <g id="text_6">
      <!-- 0.4 -->
      <g transform="translate(24.478125 283.534219)scale(0.1 -0.1)">
       <defs>
        <path id="DejaVuSans-34" d="M 2419 4116 
L 825 1625 
L 2419 1625 
L 2419 4116 
z
M 2253 4666 
L 3047 4666 
L 3047 1625 
L 3713 1625 
L 3713 1100 
L 3047 1100 
L 3047 0 
L 2419 0 
L 2419 1100 
L 313 1100 
L 313 1709 
L 2253 4666 
z
" transform="scale(0.015625)"/>
       </defs>
       <use xlink:href="#DejaVuSans-30"/>
       <use xlink:href="#DejaVuSans-2e" x="63.623047"/>
       <use xlink:href="#DejaVuSans-34" x="95.410156"/>
      </g>
     </g>
    </g>
    <g id="ytick_4">
     <g id="line2d_6">
      <g>
       <use xlink:href="#mac6f878a4c" x="47.38125" y="191.356406" style="stroke: #000000; stroke-width: 0.8"/>
      </g>
     </g>
     <g id="text_7">
      <!-- 0.6 -->
      <g transform="translate(24.478125 195.155625)scale(0.1 -0.1)">
       <defs>
        <path id="DejaVuSans-36" d="M 2113 2584 
Q 1688 2584 1439 2293 
Q 1191 2003 1191 1497 
Q 1191 994 1439 701 
Q 1688 409 2113 409 
Q 2538 409 2786 701 
Q 3034 994 3034 1497 
Q 3034 2003 2786 2293 
Q 2538 2584 2113 2584 
z
M 3366 4563 
L 3366 3988 
Q 3128 4100 2886 4159 
Q 2644 4219 2406 4219 
Q 1781 4219 1451 3797 
Q 1122 3375 1075 2522 
Q 1259 2794 1537 2939 
Q 1816 3084 2150 3084 
Q 2853 3084 3261 2657 
Q 3669 2231 3669 1497 
Q 3669 778 3244 343 
Q 2819 -91 2113 -91 
Q 1303 -91 875 529 
Q 447 1150 447 2328 
Q 447 3434 972 4092 
Q 1497 4750 2381 4750 
Q 2619 4750 2861 4703 
Q 3103 4656 3366 4563 
z
" transform="scale(0.015625)"/>
       </defs>
       <use xlink:href="#DejaVuSans-30"/>
       <use xlink:href="#DejaVuSans-2e" x="63.623047"/>
       <use xlink:href="#DejaVuSans-36" x="95.410156"/>
      </g>
     </g>
    </g>
    <g id="ytick_5">
     <g id="line2d_7">
      <g>
       <use xlink:href="#mac6f878a4c" x="47.38125" y="102.977812" style="stroke: #000000; stroke-width: 0.8"/>
      </g>
     </g>
     <g id="text_8">
      <!-- 0.8 -->
      <g transform="translate(24.478125 106.777031)scale(0.1 -0.1)">
       <defs>
        <path id="DejaVuSans-38" d="M 2034 2216 
Q 1584 2216 1326 1975 
Q 1069 1734 1069 1313 
Q 1069 891 1326 650 
Q 1584 409 2034 409 
Q 2484 409 2743 651 
Q 3003 894 3003 1313 
Q 3003 1734 2745 1975 
Q 2488 2216 2034 2216 
z
M 1403 2484 
Q 997 2584 770 2862 
Q 544 3141 544 3541 
Q 544 4100 942 4425 
Q 1341 4750 2034 4750 
Q 2731 4750 3128 4425 
Q 3525 4100 3525 3541 
Q 3525 3141 3298 2862 
Q 3072 2584 2669 2484 
Q 3125 2378 3379 2068 
Q 3634 1759 3634 1313 
Q 3634 634 3220 271 
Q 2806 -91 2034 -91 
Q 1263 -91 848 271 
Q 434 634 434 1313 
Q 434 1759 690 2068 
Q 947 2378 1403 2484 
z
M 1172 3481 
Q 1172 3119 1398 2916 
Q 1625 2713 2034 2713 
Q 2441 2713 2670 2916 
Q 2900 3119 2900 3481 
Q 2900 3844 2670 4047 
Q 2441 4250 2034 4250 
Q 1625 4250 1398 4047 
Q 1172 3844 1172 3481 
z
" transform="scale(0.015625)"/>
       </defs>
       <use xlink:href="#DejaVuSans-30"/>
       <use xlink:href="#DejaVuSans-2e" x="63.623047"/>
       <use xlink:href="#DejaVuSans-38" x="95.410156"/>
      </g>
     </g>
    </g>
    <g id="ytick_6">
     <g id="line2d_8">
      <g>
       <use xlink:href="#mac6f878a4c" x="47.38125" y="14.599219" style="stroke: #000000; stroke-width: 0.8"/>
      </g>
     </g>
     <g id="text_9">
      <!-- 1.0 -->
      <g transform="translate(24.478125 18.398438)scale(0.1 -0.1)">
       <defs>
        <path id="DejaVuSans-31" d="M 794 531 
L 1825 531 
L 1825 4091 
L 703 3866 
L 703 4441 
L 1819 4666 
L 2450 4666 
L 2450 531 
L 3481 531 
L 3481 0 
L 794 0 
L 794 531 
z
" transform="scale(0.015625)"/>
       </defs>
       <use xlink:href="#DejaVuSans-31"/>
       <use xlink:href="#DejaVuSans-2e" x="63.623047"/>
       <use xlink:href="#DejaVuSans-30" x="95.410156"/>
      </g>
     </g>
    </g>
    <g id="text_10">
     <!-- E[ GFlop/s ] -->
     <g transform="translate(18.398437 264.446484)rotate(-90)scale(0.1 -0.1)">
      <defs>
       <path id="DejaVuSans-45" d="M 628 4666 
L 3578 4666 
L 3578 4134 
L 1259 4134 
L 1259 2753 
L 3481 2753 
L 3481 2222 
L 1259 2222 
L 1259 531 
L 3634 531 
L 3634 0 
L 628 0 
L 628 4666 
z
" transform="scale(0.015625)"/>
       <path id="DejaVuSans-47" d="M 3809 666 
L 3809 1919 
L 2778 1919 
L 2778 2438 
L 4434 2438 
L 4434 434 
Q 4069 175 3628 42 
Q 3188 -91 2688 -91 
Q 1594 -91 976 548 
Q 359 1188 359 2328 
Q 359 3472 976 4111 
Q 1594 4750 2688 4750 
Q 3144 4750 3555 4637 
Q 3966 4525 4313 4306 
L 4313 3634 
Q 3963 3931 3569 4081 
Q 3175 4231 2741 4231 
Q 1884 4231 1454 3753 
Q 1025 3275 1025 2328 
Q 1025 1384 1454 906 
Q 1884 428 2741 428 
Q 3075 428 3337 486 
Q 3600 544 3809 666 
z
" transform="scale(0.015625)"/>
       <path id="DejaVuSans-46" d="M 628 4666 
L 3309 4666 
L 3309 4134 
L 1259 4134 
L 1259 2759 
L 3109 2759 
L 3109 2228 
L 1259 2228 
L 1259 0 
L 628 0 
L 628 4666 
z
" transform="scale(0.015625)"/>
       <path id="DejaVuSans-2f" d="M 1625 4666 
L 2156 4666 
L 531 -594 
L 0 -594 
L 1625 4666 
z
" transform="scale(0.015625)"/>
      </defs>
      <use xlink:href="#DejaVuSans-45"/>
      <use xlink:href="#DejaVuSans-5b" x="63.183594"/>
      <use xlink:href="#DejaVuSans-20" x="102.197266"/>
      <use xlink:href="#DejaVuSans-47" x="133.984375"/>
      <use xlink:href="#DejaVuSans-46" x="211.474609"/>
      <use xlink:href="#DejaVuSans-6c" x="268.994141"/>
      <use xlink:href="#DejaVuSans-6f" x="296.777344"/>
      <use xlink:href="#DejaVuSans-70" x="357.958984"/>
      <use xlink:href="#DejaVuSans-2f" x="421.435547"/>
      <use xlink:href="#DejaVuSans-73" x="455.126953"/>
      <use xlink:href="#DejaVuSans-20" x="507.226562"/>
      <use xlink:href="#DejaVuSans-5d" x="539.013672"/>
     </g>
    </g>
   </g>
   <g id="patch_19">
    <path d="M 47.38125 456.492188 
L 47.38125 14.599219 
" style="fill: none; stroke: #000000; stroke-width: 0.8; stroke-linejoin: miter; stroke-linecap: square"/>
   </g>
   <g id="patch_20">
    <path d="M 450 456.492188 
L 450 14.599219 
" style="fill: none; stroke: #000000; stroke-width: 0.8; stroke-linejoin: miter; stroke-linecap: square"/>
   </g>
   <g id="patch_21">
    <path d="M 47.38125 456.492188 
L 450 456.492188 
" style="fill: none; stroke: #000000; stroke-width: 0.8; stroke-linejoin: miter; stroke-linecap: square"/>
   </g>
   <g id="patch_22">
    <path d="M 47.38125 14.599219 
L 450 14.599219 
" style="fill: none; stroke: #000000; stroke-width: 0.8; stroke-linejoin: miter; stroke-linecap: square"/>
   </g>
   <g id="legend_1">
    <g id="patch_23">
     <path d="M 54.38125 156.927344 
L 380.820313 156.927344 
Q 382.820313 156.927344 382.820313 154.927344 
L 382.820313 21.599219 
Q 382.820313 19.599219 380.820313 19.599219 
L 54.38125 19.599219 
Q 52.38125 19.599219 52.38125 21.599219 
L 52.38125 154.927344 
Q 52.38125 156.927344 54.38125 156.927344 
z
" style="fill: #ffffff; opacity: 0.8; stroke: #cccccc; stroke-linejoin: miter"/>
    </g>
    <g id="text_11">
     <!-- implKind,ompSched -->
     <g transform="translate(167.73125 31.197656)scale(0.1 -0.1)">
      <defs>
       <path id="DejaVuSans-4b" d="M 628 4666 
L 1259 4666 
L 1259 2694 
L 3353 4666 
L 4166 4666 
L 1850 2491 
L 4331 0 
L 3500 0 
L 1259 2247 
L 1259 0 
L 628 0 
L 628 4666 
z
" transform="scale(0.015625)"/>
      </defs>
      <use xlink:href="#DejaVuSans-69"/>
      <use xlink:href="#DejaVuSans-6d" x="27.783203"/>
      <use xlink:href="#DejaVuSans-70" x="125.195312"/>
      <use xlink:href="#DejaVuSans-6c" x="188.671875"/>
      <use xlink:href="#DejaVuSans-4b" x="216.455078"/>
      <use xlink:href="#DejaVuSans-69" x="282.03125"/>
      <use xlink:href="#DejaVuSans-6e" x="309.814453"/>
      <use xlink:href="#DejaVuSans-64" x="373.193359"/>
      <use xlink:href="#DejaVuSans-2c" x="436.669922"/>
      <use xlink:href="#DejaVuSans-6f" x="468.457031"/>
      <use xlink:href="#DejaVuSans-6d" x="529.638672"/>
      <use xlink:href="#DejaVuSans-70" x="627.050781"/>
      <use xlink:href="#DejaVuSans-53" x="690.527344"/>
      <use xlink:href="#DejaVuSans-63" x="754.003906"/>
      <use xlink:href="#DejaVuSans-68" x="808.984375"/>
      <use xlink:href="#DejaVuSans-65" x="872.363281"/>
      <use xlink:href="#DejaVuSans-64" x="933.886719"/>
     </g>
    </g>
    <g id="patch_24">
     <path d="M 56.38125 45.875781 
L 76.38125 45.875781 
L 76.38125 38.875781 
L 56.38125 38.875781 
z
" style="fill: #1f77b4"/>
    </g>
    <g id="text_12">
     <!-- ((1D, direct, UpperBound), OMP_SCHED_DYNAMIC) -->
     <g transform="translate(84.38125 45.875781)scale(0.1 -0.1)">
      <defs>
       <path id="DejaVuSans-44" d="M 1259 4147 
L 1259 519 
L 2022 519 
Q 2988 519 3436 956 
Q 3884 1394 3884 2338 
Q 3884 3275 3436 3711 
Q 2988 4147 2022 4147 
L 1259 4147 
z
M 628 4666 
L 1925 4666 
Q 3281 4666 3915 4102 
Q 4550 3538 4550 2338 
Q 4550 1131 3912 565 
Q 3275 0 1925 0 
L 628 0 
L 628 4666 
z
" transform="scale(0.015625)"/>
       <path id="DejaVuSans-4f" d="M 2522 4238 
Q 1834 4238 1429 3725 
Q 1025 3213 1025 2328 
Q 1025 1447 1429 934 
Q 1834 422 2522 422 
Q 3209 422 3611 934 
Q 4013 1447 4013 2328 
Q 4013 3213 3611 3725 
Q 3209 4238 2522 4238 
z
M 2522 4750 
Q 3503 4750 4090 4092 
Q 4678 3434 4678 2328 
Q 4678 1225 4090 567 
Q 3503 -91 2522 -91 
Q 1538 -91 948 565 
Q 359 1222 359 2328 
Q 359 3434 948 4092 
Q 1538 4750 2522 4750 
z
" transform="scale(0.015625)"/>
       <path id="DejaVuSans-5f" d="M 3263 -1063 
L 3263 -1509 
L -63 -1509 
L -63 -1063 
L 3263 -1063 
z
" transform="scale(0.015625)"/>
       <path id="DejaVuSans-43" d="M 4122 4306 
L 4122 3641 
Q 3803 3938 3442 4084 
Q 3081 4231 2675 4231 
Q 1875 4231 1450 3742 
Q 1025 3253 1025 2328 
Q 1025 1406 1450 917 
Q 1875 428 2675 428 
Q 3081 428 3442 575 
Q 3803 722 4122 1019 
L 4122 359 
Q 3791 134 3420 21 
Q 3050 -91 2638 -91 
Q 1578 -91 968 557 
Q 359 1206 359 2328 
Q 359 3453 968 4101 
Q 1578 4750 2638 4750 
Q 3056 4750 3426 4639 
Q 3797 4528 4122 4306 
z
" transform="scale(0.015625)"/>
       <path id="DejaVuSans-48" d="M 628 4666 
L 1259 4666 
L 1259 2753 
L 3553 2753 
L 3553 4666 
L 4184 4666 
L 4184 0 
L 3553 0 
L 3553 2222 
L 1259 2222 
L 1259 0 
L 628 0 
L 628 4666 
z
" transform="scale(0.015625)"/>
       <path id="DejaVuSans-59" d="M -13 4666 
L 666 4666 
L 1959 2747 
L 3244 4666 
L 3922 4666 
L 2272 2222 
L 2272 0 
L 1638 0 
L 1638 2222 
L -13 4666 
z
" transform="scale(0.015625)"/>
       <path id="DejaVuSans-4e" d="M 628 4666 
L 1478 4666 
L 3547 763 
L 3547 4666 
L 4159 4666 
L 4159 0 
L 3309 0 
L 1241 3903 
L 1241 0 
L 628 0 
L 628 4666 
z
" transform="scale(0.015625)"/>
       <path id="DejaVuSans-41" d="M 2188 4044 
L 1331 1722 
L 3047 1722 
L 2188 4044 
z
M 1831 4666 
L 2547 4666 
L 4325 0 
L 3669 0 
L 3244 1197 
L 1141 1197 
L 716 0 
L 50 0 
L 1831 4666 
z
" transform="scale(0.015625)"/>
       <path id="DejaVuSans-49" d="M 628 4666 
L 1259 4666 
L 1259 0 
L 628 0 
L 628 4666 
z
" transform="scale(0.015625)"/>
      </defs>
      <use xlink:href="#DejaVuSans-28"/>
      <use xlink:href="#DejaVuSans-28" x="39.013672"/>
      <use xlink:href="#DejaVuSans-31" x="78.027344"/>
      <use xlink:href="#DejaVuSans-44" x="141.650391"/>
      <use xlink:href="#DejaVuSans-2c" x="218.652344"/>
      <use xlink:href="#DejaVuSans-20" x="250.439453"/>
      <use xlink:href="#DejaVuSans-64" x="282.226562"/>
      <use xlink:href="#DejaVuSans-69" x="345.703125"/>
      <use xlink:href="#DejaVuSans-72" x="373.486328"/>
      <use xlink:href="#DejaVuSans-65" x="412.349609"/>
      <use xlink:href="#DejaVuSans-63" x="473.873047"/>
      <use xlink:href="#DejaVuSans-74" x="528.853516"/>
      <use xlink:href="#DejaVuSans-2c" x="568.0625"/>
      <use xlink:href="#DejaVuSans-20" x="599.849609"/>
      <use xlink:href="#DejaVuSans-55" x="631.636719"/>
      <use xlink:href="#DejaVuSans-70" x="704.830078"/>
      <use xlink:href="#DejaVuSans-70" x="768.306641"/>
      <use xlink:href="#DejaVuSans-65" x="831.783203"/>
      <use xlink:href="#DejaVuSans-72" x="893.306641"/>
      <use xlink:href="#DejaVuSans-42" x="934.419922"/>
      <use xlink:href="#DejaVuSans-6f" x="1003.023438"/>
      <use xlink:href="#DejaVuSans-75" x="1064.205078"/>
      <use xlink:href="#DejaVuSans-6e" x="1127.583984"/>
      <use xlink:href="#DejaVuSans-64" x="1190.962891"/>
      <use xlink:href="#DejaVuSans-29" x="1254.439453"/>
      <use xlink:href="#DejaVuSans-2c" x="1293.453125"/>
      <use xlink:href="#DejaVuSans-20" x="1325.240234"/>
      <use xlink:href="#DejaVuSans-4f" x="1357.027344"/>
      <use xlink:href="#DejaVuSans-4d" x="1435.738281"/>
      <use xlink:href="#DejaVuSans-50" x="1522.017578"/>
      <use xlink:href="#DejaVuSans-5f" x="1582.320312"/>
      <use xlink:href="#DejaVuSans-53" x="1632.320312"/>
      <use xlink:href="#DejaVuSans-43" x="1695.796875"/>
      <use xlink:href="#DejaVuSans-48" x="1765.621094"/>
      <use xlink:href="#DejaVuSans-45" x="1840.816406"/>
      <use xlink:href="#DejaVuSans-44" x="1904"/>
      <use xlink:href="#DejaVuSans-5f" x="1981.001953"/>
      <use xlink:href="#DejaVuSans-44" x="2031.001953"/>
      <use xlink:href="#DejaVuSans-59" x="2102.503906"/>
      <use xlink:href="#DejaVuSans-4e" x="2163.587891"/>
      <use xlink:href="#DejaVuSans-41" x="2238.392578"/>
      <use xlink:href="#DejaVuSans-4d" x="2306.800781"/>
      <use xlink:href="#DejaVuSans-49" x="2393.080078"/>
      <use xlink:href="#DejaVuSans-43" x="2422.572266"/>
      <use xlink:href="#DejaVuSans-29" x="2492.396484"/>
     </g>
    </g>
    <g id="patch_25">
     <path d="M 56.38125 60.832031 
L 76.38125 60.832031 
L 76.38125 53.832031 
L 56.38125 53.832031 
z
" style="fill: #ff7f0e"/>
    </g>
    <g id="text_13">
     <!-- ((1D, direct, UpperBound), OMP_SCHED_STATIC) -->
     <g transform="translate(84.38125 60.832031)scale(0.1 -0.1)">
      <defs>
       <path id="DejaVuSans-54" d="M -19 4666 
L 3928 4666 
L 3928 4134 
L 2272 4134 
L 2272 0 
L 1638 0 
L 1638 4134 
L -19 4134 
L -19 4666 
z
" transform="scale(0.015625)"/>
      </defs>
      <use xlink:href="#DejaVuSans-28"/>
      <use xlink:href="#DejaVuSans-28" x="39.013672"/>
      <use xlink:href="#DejaVuSans-31" x="78.027344"/>
      <use xlink:href="#DejaVuSans-44" x="141.650391"/>
      <use xlink:href="#DejaVuSans-2c" x="218.652344"/>
      <use xlink:href="#DejaVuSans-20" x="250.439453"/>
      <use xlink:href="#DejaVuSans-64" x="282.226562"/>
      <use xlink:href="#DejaVuSans-69" x="345.703125"/>
      <use xlink:href="#DejaVuSans-72" x="373.486328"/>
      <use xlink:href="#DejaVuSans-65" x="412.349609"/>
      <use xlink:href="#DejaVuSans-63" x="473.873047"/>
      <use xlink:href="#DejaVuSans-74" x="528.853516"/>
      <use xlink:href="#DejaVuSans-2c" x="568.0625"/>
      <use xlink:href="#DejaVuSans-20" x="599.849609"/>
      <use xlink:href="#DejaVuSans-55" x="631.636719"/>
      <use xlink:href="#DejaVuSans-70" x="704.830078"/>
      <use xlink:href="#DejaVuSans-70" x="768.306641"/>
      <use xlink:href="#DejaVuSans-65" x="831.783203"/>
      <use xlink:href="#DejaVuSans-72" x="893.306641"/>
      <use xlink:href="#DejaVuSans-42" x="934.419922"/>
      <use xlink:href="#DejaVuSans-6f" x="1003.023438"/>
      <use xlink:href="#DejaVuSans-75" x="1064.205078"/>
      <use xlink:href="#DejaVuSans-6e" x="1127.583984"/>
      <use xlink:href="#DejaVuSans-64" x="1190.962891"/>
      <use xlink:href="#DejaVuSans-29" x="1254.439453"/>
      <use xlink:href="#DejaVuSans-2c" x="1293.453125"/>
      <use xlink:href="#DejaVuSans-20" x="1325.240234"/>
      <use xlink:href="#DejaVuSans-4f" x="1357.027344"/>
      <use xlink:href="#DejaVuSans-4d" x="1435.738281"/>
      <use xlink:href="#DejaVuSans-50" x="1522.017578"/>
      <use xlink:href="#DejaVuSans-5f" x="1582.320312"/>
      <use xlink:href="#DejaVuSans-53" x="1632.320312"/>
      <use xlink:href="#DejaVuSans-43" x="1695.796875"/>
      <use xlink:href="#DejaVuSans-48" x="1765.621094"/>
      <use xlink:href="#DejaVuSans-45" x="1840.816406"/>
      <use xlink:href="#DejaVuSans-44" x="1904"/>
      <use xlink:href="#DejaVuSans-5f" x="1981.001953"/>
      <use xlink:href="#DejaVuSans-53" x="2031.001953"/>
      <use xlink:href="#DejaVuSans-54" x="2094.478516"/>
      <use xlink:href="#DejaVuSans-41" x="2147.8125"/>
      <use xlink:href="#DejaVuSans-54" x="2208.470703"/>
      <use xlink:href="#DejaVuSans-49" x="2269.554688"/>
      <use xlink:href="#DejaVuSans-43" x="2299.046875"/>
      <use xlink:href="#DejaVuSans-29" x="2368.871094"/>
     </g>
    </g>
    <g id="patch_26">
     <path d="M 56.38125 75.788281 
L 76.38125 75.788281 
L 76.38125 68.788281 
L 56.38125 68.788281 
z
" style="fill: #2ca02c"/>
    </g>
    <g id="text_14">
     <!-- ((1D, pairMuls, SymbolicAccurate), OMP_SCHED_DYNAMIC) -->
     <g transform="translate(84.38125 75.788281)scale(0.1 -0.1)">
      <defs>
       <path id="DejaVuSans-79" d="M 2059 -325 
Q 1816 -950 1584 -1140 
Q 1353 -1331 966 -1331 
L 506 -1331 
L 506 -850 
L 844 -850 
Q 1081 -850 1212 -737 
Q 1344 -625 1503 -206 
L 1606 56 
L 191 3500 
L 800 3500 
L 1894 763 
L 2988 3500 
L 3597 3500 
L 2059 -325 
z
" transform="scale(0.015625)"/>
       <path id="DejaVuSans-62" d="M 3116 1747 
Q 3116 2381 2855 2742 
Q 2594 3103 2138 3103 
Q 1681 3103 1420 2742 
Q 1159 2381 1159 1747 
Q 1159 1113 1420 752 
Q 1681 391 2138 391 
Q 2594 391 2855 752 
Q 3116 1113 3116 1747 
z
M 1159 2969 
Q 1341 3281 1617 3432 
Q 1894 3584 2278 3584 
Q 2916 3584 3314 3078 
Q 3713 2572 3713 1747 
Q 3713 922 3314 415 
Q 2916 -91 2278 -91 
Q 1894 -91 1617 61 
Q 1341 213 1159 525 
L 1159 0 
L 581 0 
L 581 4863 
L 1159 4863 
L 1159 2969 
z
" transform="scale(0.015625)"/>
      </defs>
      <use xlink:href="#DejaVuSans-28"/>
      <use xlink:href="#DejaVuSans-28" x="39.013672"/>
      <use xlink:href="#DejaVuSans-31" x="78.027344"/>
      <use xlink:href="#DejaVuSans-44" x="141.650391"/>
      <use xlink:href="#DejaVuSans-2c" x="218.652344"/>
      <use xlink:href="#DejaVuSans-20" x="250.439453"/>
      <use xlink:href="#DejaVuSans-70" x="282.226562"/>
      <use xlink:href="#DejaVuSans-61" x="345.703125"/>
      <use xlink:href="#DejaVuSans-69" x="406.982422"/>
      <use xlink:href="#DejaVuSans-72" x="434.765625"/>
      <use xlink:href="#DejaVuSans-4d" x="475.878906"/>
      <use xlink:href="#DejaVuSans-75" x="562.158203"/>
      <use xlink:href="#DejaVuSans-6c" x="625.537109"/>
      <use xlink:href="#DejaVuSans-73" x="653.320312"/>
      <use xlink:href="#DejaVuSans-2c" x="705.419922"/>
      <use xlink:href="#DejaVuSans-20" x="737.207031"/>
      <use xlink:href="#DejaVuSans-53" x="768.994141"/>
      <use xlink:href="#DejaVuSans-79" x="832.470703"/>
      <use xlink:href="#DejaVuSans-6d" x="891.650391"/>
      <use xlink:href="#DejaVuSans-62" x="989.0625"/>
      <use xlink:href="#DejaVuSans-6f" x="1052.539062"/>
      <use xlink:href="#DejaVuSans-6c" x="1113.720703"/>
      <use xlink:href="#DejaVuSans-69" x="1141.503906"/>
      <use xlink:href="#DejaVuSans-63" x="1169.287109"/>
      <use xlink:href="#DejaVuSans-41" x="1224.267578"/>
      <use xlink:href="#DejaVuSans-63" x="1290.925781"/>
      <use xlink:href="#DejaVuSans-63" x="1345.90625"/>
      <use xlink:href="#DejaVuSans-75" x="1400.886719"/>
      <use xlink:href="#DejaVuSans-72" x="1464.265625"/>
      <use xlink:href="#DejaVuSans-61" x="1505.378906"/>
      <use xlink:href="#DejaVuSans-74" x="1566.658203"/>
      <use xlink:href="#DejaVuSans-65" x="1605.867188"/>
      <use xlink:href="#DejaVuSans-29" x="1667.390625"/>
      <use xlink:href="#DejaVuSans-2c" x="1706.404297"/>
      <use xlink:href="#DejaVuSans-20" x="1738.191406"/>
      <use xlink:href="#DejaVuSans-4f" x="1769.978516"/>
      <use xlink:href="#DejaVuSans-4d" x="1848.689453"/>
      <use xlink:href="#DejaVuSans-50" x="1934.96875"/>
      <use xlink:href="#DejaVuSans-5f" x="1995.271484"/>
      <use xlink:href="#DejaVuSans-53" x="2045.271484"/>
      <use xlink:href="#DejaVuSans-43" x="2108.748047"/>
      <use xlink:href="#DejaVuSans-48" x="2178.572266"/>
      <use xlink:href="#DejaVuSans-45" x="2253.767578"/>
      <use xlink:href="#DejaVuSans-44" x="2316.951172"/>
      <use xlink:href="#DejaVuSans-5f" x="2393.953125"/>
      <use xlink:href="#DejaVuSans-44" x="2443.953125"/>
      <use xlink:href="#DejaVuSans-59" x="2515.455078"/>
      <use xlink:href="#DejaVuSans-4e" x="2576.539062"/>
      <use xlink:href="#DejaVuSans-41" x="2651.34375"/>
      <use xlink:href="#DejaVuSans-4d" x="2719.751953"/>
      <use xlink:href="#DejaVuSans-49" x="2806.03125"/>
      <use xlink:href="#DejaVuSans-43" x="2835.523438"/>
      <use xlink:href="#DejaVuSans-29" x="2905.347656"/>
     </g>
    </g>
    <g id="patch_27">
     <path d="M 56.38125 90.744531 
L 76.38125 90.744531 
L 76.38125 83.744531 
L 56.38125 83.744531 
z
" style="fill: #d62728"/>
    </g>
    <g id="text_15">
     <!-- ((1D, pairMuls, SymbolicAccurate), OMP_SCHED_STATIC) -->
     <g transform="translate(84.38125 90.744531)scale(0.1 -0.1)">
      <use xlink:href="#DejaVuSans-28"/>
      <use xlink:href="#DejaVuSans-28" x="39.013672"/>
      <use xlink:href="#DejaVuSans-31" x="78.027344"/>
      <use xlink:href="#DejaVuSans-44" x="141.650391"/>
      <use xlink:href="#DejaVuSans-2c" x="218.652344"/>
      <use xlink:href="#DejaVuSans-20" x="250.439453"/>
      <use xlink:href="#DejaVuSans-70" x="282.226562"/>
      <use xlink:href="#DejaVuSans-61" x="345.703125"/>
      <use xlink:href="#DejaVuSans-69" x="406.982422"/>
      <use xlink:href="#DejaVuSans-72" x="434.765625"/>
      <use xlink:href="#DejaVuSans-4d" x="475.878906"/>
      <use xlink:href="#DejaVuSans-75" x="562.158203"/>
      <use xlink:href="#DejaVuSans-6c" x="625.537109"/>
      <use xlink:href="#DejaVuSans-73" x="653.320312"/>
      <use xlink:href="#DejaVuSans-2c" x="705.419922"/>
      <use xlink:href="#DejaVuSans-20" x="737.207031"/>
      <use xlink:href="#DejaVuSans-53" x="768.994141"/>
      <use xlink:href="#DejaVuSans-79" x="832.470703"/>
      <use xlink:href="#DejaVuSans-6d" x="891.650391"/>
      <use xlink:href="#DejaVuSans-62" x="989.0625"/>
      <use xlink:href="#DejaVuSans-6f" x="1052.539062"/>
      <use xlink:href="#DejaVuSans-6c" x="1113.720703"/>
      <use xlink:href="#DejaVuSans-69" x="1141.503906"/>
      <use xlink:href="#DejaVuSans-63" x="1169.287109"/>
      <use xlink:href="#DejaVuSans-41" x="1224.267578"/>
      <use xlink:href="#DejaVuSans-63" x="1290.925781"/>
      <use xlink:href="#DejaVuSans-63" x="1345.90625"/>
      <use xlink:href="#DejaVuSans-75" x="1400.886719"/>
      <use xlink:href="#DejaVuSans-72" x="1464.265625"/>
      <use xlink:href="#DejaVuSans-61" x="1505.378906"/>
      <use xlink:href="#DejaVuSans-74" x="1566.658203"/>
      <use xlink:href="#DejaVuSans-65" x="1605.867188"/>
      <use xlink:href="#DejaVuSans-29" x="1667.390625"/>
      <use xlink:href="#DejaVuSans-2c" x="1706.404297"/>
      <use xlink:href="#DejaVuSans-20" x="1738.191406"/>
      <use xlink:href="#DejaVuSans-4f" x="1769.978516"/>
      <use xlink:href="#DejaVuSans-4d" x="1848.689453"/>
      <use xlink:href="#DejaVuSans-50" x="1934.96875"/>
      <use xlink:href="#DejaVuSans-5f" x="1995.271484"/>
      <use xlink:href="#DejaVuSans-53" x="2045.271484"/>
      <use xlink:href="#DejaVuSans-43" x="2108.748047"/>
      <use xlink:href="#DejaVuSans-48" x="2178.572266"/>
      <use xlink:href="#DejaVuSans-45" x="2253.767578"/>
      <use xlink:href="#DejaVuSans-44" x="2316.951172"/>
      <use xlink:href="#DejaVuSans-5f" x="2393.953125"/>
      <use xlink:href="#DejaVuSans-53" x="2443.953125"/>
      <use xlink:href="#DejaVuSans-54" x="2507.429688"/>
      <use xlink:href="#DejaVuSans-41" x="2560.763672"/>
      <use xlink:href="#DejaVuSans-54" x="2621.421875"/>
      <use xlink:href="#DejaVuSans-49" x="2682.505859"/>
      <use xlink:href="#DejaVuSans-43" x="2711.998047"/>
      <use xlink:href="#DejaVuSans-29" x="2781.822266"/>
     </g>
    </g>
    <g id="patch_28">
     <path d="M 56.38125 105.700781 
L 76.38125 105.700781 
L 76.38125 98.700781 
L 56.38125 98.700781 
z
" style="fill: #9467bd"/>
    </g>
    <g id="text_16">
     <!-- ((1D, pairMuls, UpperBound), OMP_SCHED_DYNAMIC) -->
     <g transform="translate(84.38125 105.700781)scale(0.1 -0.1)">
      <use xlink:href="#DejaVuSans-28"/>
      <use xlink:href="#DejaVuSans-28" x="39.013672"/>
      <use xlink:href="#DejaVuSans-31" x="78.027344"/>
      <use xlink:href="#DejaVuSans-44" x="141.650391"/>
      <use xlink:href="#DejaVuSans-2c" x="218.652344"/>
      <use xlink:href="#DejaVuSans-20" x="250.439453"/>
      <use xlink:href="#DejaVuSans-70" x="282.226562"/>
      <use xlink:href="#DejaVuSans-61" x="345.703125"/>
      <use xlink:href="#DejaVuSans-69" x="406.982422"/>
      <use xlink:href="#DejaVuSans-72" x="434.765625"/>
      <use xlink:href="#DejaVuSans-4d" x="475.878906"/>
      <use xlink:href="#DejaVuSans-75" x="562.158203"/>
      <use xlink:href="#DejaVuSans-6c" x="625.537109"/>
      <use xlink:href="#DejaVuSans-73" x="653.320312"/>
      <use xlink:href="#DejaVuSans-2c" x="705.419922"/>
      <use xlink:href="#DejaVuSans-20" x="737.207031"/>
      <use xlink:href="#DejaVuSans-55" x="768.994141"/>
      <use xlink:href="#DejaVuSans-70" x="842.1875"/>
      <use xlink:href="#DejaVuSans-70" x="905.664062"/>
      <use xlink:href="#DejaVuSans-65" x="969.140625"/>
      <use xlink:href="#DejaVuSans-72" x="1030.664062"/>
      <use xlink:href="#DejaVuSans-42" x="1071.777344"/>
      <use xlink:href="#DejaVuSans-6f" x="1140.380859"/>
      <use xlink:href="#DejaVuSans-75" x="1201.5625"/>
      <use xlink:href="#DejaVuSans-6e" x="1264.941406"/>
      <use xlink:href="#DejaVuSans-64" x="1328.320312"/>
      <use xlink:href="#DejaVuSans-29" x="1391.796875"/>
      <use xlink:href="#DejaVuSans-2c" x="1430.810547"/>
      <use xlink:href="#DejaVuSans-20" x="1462.597656"/>
      <use xlink:href="#DejaVuSans-4f" x="1494.384766"/>
      <use xlink:href="#DejaVuSans-4d" x="1573.095703"/>
      <use xlink:href="#DejaVuSans-50" x="1659.375"/>
      <use xlink:href="#DejaVuSans-5f" x="1719.677734"/>
      <use xlink:href="#DejaVuSans-53" x="1769.677734"/>
      <use xlink:href="#DejaVuSans-43" x="1833.154297"/>
      <use xlink:href="#DejaVuSans-48" x="1902.978516"/>
      <use xlink:href="#DejaVuSans-45" x="1978.173828"/>
      <use xlink:href="#DejaVuSans-44" x="2041.357422"/>
      <use xlink:href="#DejaVuSans-5f" x="2118.359375"/>
      <use xlink:href="#DejaVuSans-44" x="2168.359375"/>
      <use xlink:href="#DejaVuSans-59" x="2239.861328"/>
      <use xlink:href="#DejaVuSans-4e" x="2300.945312"/>
      <use xlink:href="#DejaVuSans-41" x="2375.75"/>
      <use xlink:href="#DejaVuSans-4d" x="2444.158203"/>
      <use xlink:href="#DejaVuSans-49" x="2530.4375"/>
      <use xlink:href="#DejaVuSans-43" x="2559.929688"/>
      <use xlink:href="#DejaVuSans-29" x="2629.753906"/>
     </g>
    </g>
    <g id="patch_29">
     <path d="M 56.38125 120.657031 
L 76.38125 120.657031 
L 76.38125 113.657031 
L 56.38125 113.657031 
z
" style="fill: #8c564b"/>
    </g>
    <g id="text_17">
     <!-- ((1D, pairMuls, UpperBound), OMP_SCHED_STATIC) -->
     <g transform="translate(84.38125 120.657031)scale(0.1 -0.1)">
      <use xlink:href="#DejaVuSans-28"/>
      <use xlink:href="#DejaVuSans-28" x="39.013672"/>
      <use xlink:href="#DejaVuSans-31" x="78.027344"/>
      <use xlink:href="#DejaVuSans-44" x="141.650391"/>
      <use xlink:href="#DejaVuSans-2c" x="218.652344"/>
      <use xlink:href="#DejaVuSans-20" x="250.439453"/>
      <use xlink:href="#DejaVuSans-70" x="282.226562"/>
      <use xlink:href="#DejaVuSans-61" x="345.703125"/>
      <use xlink:href="#DejaVuSans-69" x="406.982422"/>
      <use xlink:href="#DejaVuSans-72" x="434.765625"/>
      <use xlink:href="#DejaVuSans-4d" x="475.878906"/>
      <use xlink:href="#DejaVuSans-75" x="562.158203"/>
      <use xlink:href="#DejaVuSans-6c" x="625.537109"/>
      <use xlink:href="#DejaVuSans-73" x="653.320312"/>
      <use xlink:href="#DejaVuSans-2c" x="705.419922"/>
      <use xlink:href="#DejaVuSans-20" x="737.207031"/>
      <use xlink:href="#DejaVuSans-55" x="768.994141"/>
      <use xlink:href="#DejaVuSans-70" x="842.1875"/>
      <use xlink:href="#DejaVuSans-70" x="905.664062"/>
      <use xlink:href="#DejaVuSans-65" x="969.140625"/>
      <use xlink:href="#DejaVuSans-72" x="1030.664062"/>
      <use xlink:href="#DejaVuSans-42" x="1071.777344"/>
      <use xlink:href="#DejaVuSans-6f" x="1140.380859"/>
      <use xlink:href="#DejaVuSans-75" x="1201.5625"/>
      <use xlink:href="#DejaVuSans-6e" x="1264.941406"/>
      <use xlink:href="#DejaVuSans-64" x="1328.320312"/>
      <use xlink:href="#DejaVuSans-29" x="1391.796875"/>
      <use xlink:href="#DejaVuSans-2c" x="1430.810547"/>
      <use xlink:href="#DejaVuSans-20" x="1462.597656"/>
      <use xlink:href="#DejaVuSans-4f" x="1494.384766"/>
      <use xlink:href="#DejaVuSans-4d" x="1573.095703"/>
      <use xlink:href="#DejaVuSans-50" x="1659.375"/>
      <use xlink:href="#DejaVuSans-5f" x="1719.677734"/>
      <use xlink:href="#DejaVuSans-53" x="1769.677734"/>
      <use xlink:href="#DejaVuSans-43" x="1833.154297"/>
      <use xlink:href="#DejaVuSans-48" x="1902.978516"/>
      <use xlink:href="#DejaVuSans-45" x="1978.173828"/>
      <use xlink:href="#DejaVuSans-44" x="2041.357422"/>
      <use xlink:href="#DejaVuSans-5f" x="2118.359375"/>
      <use xlink:href="#DejaVuSans-53" x="2168.359375"/>
      <use xlink:href="#DejaVuSans-54" x="2231.835938"/>
      <use xlink:href="#DejaVuSans-41" x="2285.169922"/>
      <use xlink:href="#DejaVuSans-54" x="2345.828125"/>
      <use xlink:href="#DejaVuSans-49" x="2406.912109"/>
      <use xlink:href="#DejaVuSans-43" x="2436.404297"/>
      <use xlink:href="#DejaVuSans-29" x="2506.228516"/>
     </g>
    </g>
    <g id="patch_30">
     <path d="M 56.38125 135.613281 
L 76.38125 135.613281 
L 76.38125 128.613281 
L 56.38125 128.613281 
z
" style="fill: #e377c2"/>
    </g>
    <g id="text_18">
     <!-- ((2D, pairMuls, UpperBound), OMP_SCHED_DYNAMIC) -->
     <g transform="translate(84.38125 135.613281)scale(0.1 -0.1)">
      <use xlink:href="#DejaVuSans-28"/>
      <use xlink:href="#DejaVuSans-28" x="39.013672"/>
      <use xlink:href="#DejaVuSans-32" x="78.027344"/>
      <use xlink:href="#DejaVuSans-44" x="141.650391"/>
      <use xlink:href="#DejaVuSans-2c" x="218.652344"/>
      <use xlink:href="#DejaVuSans-20" x="250.439453"/>
      <use xlink:href="#DejaVuSans-70" x="282.226562"/>
      <use xlink:href="#DejaVuSans-61" x="345.703125"/>
      <use xlink:href="#DejaVuSans-69" x="406.982422"/>
      <use xlink:href="#DejaVuSans-72" x="434.765625"/>
      <use xlink:href="#DejaVuSans-4d" x="475.878906"/>
      <use xlink:href="#DejaVuSans-75" x="562.158203"/>
      <use xlink:href="#DejaVuSans-6c" x="625.537109"/>
      <use xlink:href="#DejaVuSans-73" x="653.320312"/>
      <use xlink:href="#DejaVuSans-2c" x="705.419922"/>
      <use xlink:href="#DejaVuSans-20" x="737.207031"/>
      <use xlink:href="#DejaVuSans-55" x="768.994141"/>
      <use xlink:href="#DejaVuSans-70" x="842.1875"/>
      <use xlink:href="#DejaVuSans-70" x="905.664062"/>
      <use xlink:href="#DejaVuSans-65" x="969.140625"/>
      <use xlink:href="#DejaVuSans-72" x="1030.664062"/>
      <use xlink:href="#DejaVuSans-42" x="1071.777344"/>
      <use xlink:href="#DejaVuSans-6f" x="1140.380859"/>
      <use xlink:href="#DejaVuSans-75" x="1201.5625"/>
      <use xlink:href="#DejaVuSans-6e" x="1264.941406"/>
      <use xlink:href="#DejaVuSans-64" x="1328.320312"/>
      <use xlink:href="#DejaVuSans-29" x="1391.796875"/>
      <use xlink:href="#DejaVuSans-2c" x="1430.810547"/>
      <use xlink:href="#DejaVuSans-20" x="1462.597656"/>
      <use xlink:href="#DejaVuSans-4f" x="1494.384766"/>
      <use xlink:href="#DejaVuSans-4d" x="1573.095703"/>
      <use xlink:href="#DejaVuSans-50" x="1659.375"/>
      <use xlink:href="#DejaVuSans-5f" x="1719.677734"/>
      <use xlink:href="#DejaVuSans-53" x="1769.677734"/>
      <use xlink:href="#DejaVuSans-43" x="1833.154297"/>
      <use xlink:href="#DejaVuSans-48" x="1902.978516"/>
      <use xlink:href="#DejaVuSans-45" x="1978.173828"/>
      <use xlink:href="#DejaVuSans-44" x="2041.357422"/>
      <use xlink:href="#DejaVuSans-5f" x="2118.359375"/>
      <use xlink:href="#DejaVuSans-44" x="2168.359375"/>
      <use xlink:href="#DejaVuSans-59" x="2239.861328"/>
      <use xlink:href="#DejaVuSans-4e" x="2300.945312"/>
      <use xlink:href="#DejaVuSans-41" x="2375.75"/>
      <use xlink:href="#DejaVuSans-4d" x="2444.158203"/>
      <use xlink:href="#DejaVuSans-49" x="2530.4375"/>
      <use xlink:href="#DejaVuSans-43" x="2559.929688"/>
      <use xlink:href="#DejaVuSans-29" x="2629.753906"/>
     </g>
    </g>
    <g id="patch_31">
     <path d="M 56.38125 150.569531 
L 76.38125 150.569531 
L 76.38125 143.569531 
L 56.38125 143.569531 
z
" style="fill: #7f7f7f"/>
    </g>
    <g id="text_19">
     <!-- ((2D, pairMuls, UpperBound), OMP_SCHED_STATIC) -->
     <g transform="translate(84.38125 150.569531)scale(0.1 -0.1)">
      <use xlink:href="#DejaVuSans-28"/>
      <use xlink:href="#DejaVuSans-28" x="39.013672"/>
      <use xlink:href="#DejaVuSans-32" x="78.027344"/>
      <use xlink:href="#DejaVuSans-44" x="141.650391"/>
      <use xlink:href="#DejaVuSans-2c" x="218.652344"/>
      <use xlink:href="#DejaVuSans-20" x="250.439453"/>
      <use xlink:href="#DejaVuSans-70" x="282.226562"/>
      <use xlink:href="#DejaVuSans-61" x="345.703125"/>
      <use xlink:href="#DejaVuSans-69" x="406.982422"/>
      <use xlink:href="#DejaVuSans-72" x="434.765625"/>
      <use xlink:href="#DejaVuSans-4d" x="475.878906"/>
      <use xlink:href="#DejaVuSans-75" x="562.158203"/>
      <use xlink:href="#DejaVuSans-6c" x="625.537109"/>
      <use xlink:href="#DejaVuSans-73" x="653.320312"/>
      <use xlink:href="#DejaVuSans-2c" x="705.419922"/>
      <use xlink:href="#DejaVuSans-20" x="737.207031"/>
      <use xlink:href="#DejaVuSans-55" x="768.994141"/>
      <use xlink:href="#DejaVuSans-70" x="842.1875"/>
      <use xlink:href="#DejaVuSans-70" x="905.664062"/>
      <use xlink:href="#DejaVuSans-65" x="969.140625"/>
      <use xlink:href="#DejaVuSans-72" x="1030.664062"/>
      <use xlink:href="#DejaVuSans-42" x="1071.777344"/>
      <use xlink:href="#DejaVuSans-6f" x="1140.380859"/>
      <use xlink:href="#DejaVuSans-75" x="1201.5625"/>
      <use xlink:href="#DejaVuSans-6e" x="1264.941406"/>
      <use xlink:href="#DejaVuSans-64" x="1328.320312"/>
      <use xlink:href="#DejaVuSans-29" x="1391.796875"/>
      <use xlink:href="#DejaVuSans-2c" x="1430.810547"/>
      <use xlink:href="#DejaVuSans-20" x="1462.597656"/>
      <use xlink:href="#DejaVuSans-4f" x="1494.384766"/>
      <use xlink:href="#DejaVuSans-4d" x="1573.095703"/>
      <use xlink:href="#DejaVuSans-50" x="1659.375"/>
      <use xlink:href="#DejaVuSans-5f" x="1719.677734"/>
      <use xlink:href="#DejaVuSans-53" x="1769.677734"/>
      <use xlink:href="#DejaVuSans-43" x="1833.154297"/>
      <use xlink:href="#DejaVuSans-48" x="1902.978516"/>
      <use xlink:href="#DejaVuSans-45" x="1978.173828"/>
      <use xlink:href="#DejaVuSans-44" x="2041.357422"/>
      <use xlink:href="#DejaVuSans-5f" x="2118.359375"/>
      <use xlink:href="#DejaVuSans-53" x="2168.359375"/>
      <use xlink:href="#DejaVuSans-54" x="2231.835938"/>
      <use xlink:href="#DejaVuSans-41" x="2285.169922"/>
      <use xlink:href="#DejaVuSans-54" x="2345.828125"/>
      <use xlink:href="#DejaVuSans-49" x="2406.912109"/>
      <use xlink:href="#DejaVuSans-43" x="2436.404297"/>
      <use xlink:href="#DejaVuSans-29" x="2506.228516"/>
     </g>
    </g>
   </g>
  </g>
 </g>
 <defs>
  <clipPath id="pb56b1c663e">
   <rect x="47.38125" y="14.599219" width="402.61875" height="441.892969"/>
  </clipPath>
 </defs>
</svg>
