<?xml version="1.0" encoding="UTF-8" standalone="no"?>
<!-- Generated by graphviz version 2.48.0 (0)
 -->

<!-- Pages: 1 -->

<svg
   width="987pt"
   height="332pt"
   viewBox="0.00 0.00 987.19 332.00"
   version="1.1"
   id="svg211"
   sodipodi:docname="Sp3MM_treeMinimal.dot.txt.svg"
   inkscape:version="1.1.2 (0a00cf5339, 2022-02-04)"
   xmlns:inkscape="http://www.inkscape.org/namespaces/inkscape"
   xmlns:sodipodi="http://sodipodi.sourceforge.net/DTD/sodipodi-0.dtd"
   xmlns="http://www.w3.org/2000/svg"
   xmlns:svg="http://www.w3.org/2000/svg">
  <defs
     id="defs215" />
  <sodipodi:namedview
     id="namedview213"
     pagecolor="#ffffff"
     bordercolor="#666666"
     borderopacity="1.0"
     inkscape:pageshadow="2"
     inkscape:pageopacity="0.0"
     inkscape:pagecheckerboard="0"
     inkscape:document-units="pt"
     showgrid="false"
     inkscape:zoom="0.6075228"
     inkscape:cx="516.85303"
     inkscape:cy="648.53533"
     inkscape:window-width="1920"
     inkscape:window-height="1176"
     inkscape:window-x="0"
     inkscape:window-y="0"
     inkscape:window-maximized="1"
     inkscape:current-layer="graph0" />
  <g
     id="graph0"
     class="graph"
     transform="scale(1 1) rotate(0) translate(4 328)">
    <polygon
       fill="white"
       stroke="transparent"
       points="-4,4 -4,-328 983.19,-328 983.19,4 -4,4"
       id="polygon2" />
    <!-- Sp3MM -->
    <g
       id="node1"
       class="node">
      <title
         id="title4">Sp3MM</title>
      <ellipse
         fill="none"
         stroke="black"
         cx="554.3"
         cy="-306"
         rx="42.49"
         ry="18"
         id="ellipse6" />
      <text
         text-anchor="middle"
         x="554.3"
         y="-302.3"
         font-family="Helvetica,Arial,sans-serif"
         font-size="14.00"
         id="text8">Sp3MM</text>
    </g>
    <!-- UpperBound -->
    <g
       id="node2"
       class="node">
      <title
         id="title11">UpperBound</title>
      <ellipse
         fill="none"
         stroke="black"
         cx="428.3"
         cy="-234"
         rx="60.39"
         ry="18"
         id="ellipse13" />
      <text
         text-anchor="middle"
         x="428.3"
         y="-230.3"
         font-family="Helvetica,Arial,sans-serif"
         font-size="14.00"
         id="text15">UpperBound</text>
    </g>
    <!-- Sp3MM&#45;&#45;UpperBound -->
    <g
       id="edge1"
       class="edge">
      <title
         id="title18">Sp3MM--UpperBound</title>
      <path
         fill="none"
         stroke="black"
         d="M529.7,-291.34C508.36,-279.48 477.51,-262.34 455.45,-250.08"
         id="path20" />
    </g>
    <!-- SymbAccurate -->
    <g
       id="node3"
       class="node">
      <title
         id="title23">SymbAccurate</title>
      <ellipse
         fill="none"
         stroke="black"
         cx="681.3"
         cy="-234"
         rx="68.79"
         ry="18"
         id="ellipse25" />
      <text
         text-anchor="middle"
         x="681.3"
         y="-230.3"
         font-family="Helvetica,Arial,sans-serif"
         font-size="14.00"
         id="text27">SymbAccurate</text>
    </g>
    <!-- Sp3MM&#45;&#45;SymbAccurate -->
    <g
       id="edge2"
       class="edge">
      <title
         id="title30">Sp3MM--SymbAccurate</title>
      <path
         fill="none"
         stroke="black"
         d="M579.08,-291.34C600.31,-279.64 630.86,-262.8 653.03,-250.58"
         id="path32" />
    </g>
    <!-- TmpSpace StaticAssign -->
    <g
       id="node4"
       class="node">
      <title
         id="title35">TmpSpace StaticAssign</title>
      <ellipse
         fill="none"
         stroke="black"
         cx="178.3"
         cy="-162"
         rx="104.78"
         ry="18"
         id="ellipse37" />
      <text
         text-anchor="middle"
         x="178.3"
         y="-158.3"
         font-family="Helvetica, Arial, sans-serif"
         font-size="14px"
         id="text39">TmpSpace <tspan
   style="font-style:normal;font-variant:normal;font-weight:bold;font-stretch:normal;font-family:Helvetica, Arial, sans-serif;-inkscape-font-specification:'Helvetica, Arial, sans-serif Bold'"
   id="tspan4037">Static</tspan>Assign</text>
    </g>
    <!-- UpperBound&#45;&#45;TmpSpace StaticAssign -->
    <g
       id="edge3"
       class="edge">
      <title
         id="title42">UpperBound--TmpSpace StaticAssign</title>
      <path
         fill="none"
         stroke="black"
         d="M385.89,-221.13C342.98,-209.11 276.57,-190.52 230.47,-177.61"
         id="path44" />
    </g>
    <!-- TmpSpace DynAssign -->
    <g
       id="node5"
       class="node">
      <title
         id="title47">TmpSpace DynAssign</title>
      <ellipse
         fill="none"
         stroke="black"
         cx="428.3"
         cy="-162"
         rx="98.28"
         ry="18"
         id="ellipse49" />
      <text
         text-anchor="middle"
         x="428.29999"
         y="-158.3"
         font-family="Helvetica, Arial, sans-serif"
         font-size="14px"
         id="text51">TmpSpace <tspan
   style="font-style:normal;font-variant:normal;font-weight:bold;font-stretch:normal;font-family:Helvetica, Arial, sans-serif;-inkscape-font-specification:'Helvetica, Arial, sans-serif Bold'"
   id="tspan6367">Dyn</tspan>Assign</text>
    </g>
    <!-- UpperBound&#45;&#45;TmpSpace DynAssign -->
    <g
       id="edge4"
       class="edge">
      <title
         id="title54">UpperBound--TmpSpace DynAssign</title>
      <path
         fill="none"
         stroke="black"
         d="M428.3,-215.7C428.3,-204.85 428.3,-190.92 428.3,-180.1"
         id="path56" />
    </g>
    <!-- RBTree -->
    <g
       id="node11"
       class="node">
      <title
         id="title59">RBTree</title>
      <ellipse
         fill="none"
         stroke="black"
         cx="681.3"
         cy="-162"
         rx="40.09"
         ry="18"
         id="ellipse61" />
      <text
         text-anchor="middle"
         x="681.29999"
         y="-158.3"
         font-family="Helvetica, Arial, sans-serif"
         font-size="14px"
         id="text63"><tspan
           style="font-style:normal;font-variant:normal;font-weight:bold;font-stretch:normal;font-family:Helvetica, Arial, sans-serif;-inkscape-font-specification:'Helvetica, Arial, sans-serif Bold'"
           id="tspan16647">RBTree</tspan></text>
    </g>
    <!-- SymbAccurate&#45;&#45;RBTree -->
    <g
       id="edge10"
       class="edge">
      <title
         id="title66">SymbAccurate--RBTree</title>
      <path
         fill="none"
         stroke="black"
         d="M681.3,-215.7C681.3,-204.85 681.3,-190.92 681.3,-180.1"
         id="path68" />
    </g>
    <!-- idxMap -->
    <g
       id="node12"
       class="node">
      <title
         id="title71">idxMap</title>
      <ellipse
         fill="none"
         stroke="black"
         cx="798.3"
         cy="-162"
         rx="39.79"
         ry="18"
         id="ellipse73" />
      <text
         text-anchor="middle"
         x="798.29999"
         y="-158.3"
         font-family="Helvetica, Arial, sans-serif"
         font-size="14px"
         id="text75"><tspan
           style="font-style:normal;font-variant:normal;font-weight:bold;font-stretch:normal;font-family:Helvetica, Arial, sans-serif;-inkscape-font-specification:'Helvetica, Arial, sans-serif Bold'"
           id="tspan19055">idxMap</tspan></text>
    </g>
    <!-- SymbAccurate&#45;&#45;idxMap -->
    <g
       id="edge11"
       class="edge">
      <title
         id="title78">SymbAccurate--idxMap</title>
      <path
         fill="none"
         stroke="black"
         d="M707.55,-217.29C727.9,-205.12 755.81,-188.42 775.29,-176.76"
         id="path80" />
    </g>
    <!-- SpMM1D_0 -->
    <g
       id="node6"
       class="node">
      <title
         id="title83">SpMM1D_0</title>
      <ellipse
         fill="none"
         stroke="black"
         cx="53.3"
         cy="-90"
         rx="53.09"
         ry="18"
         id="ellipse85" />
      <text
         text-anchor="middle"
         x="53.3"
         y="-86.3"
         font-family="Helvetica,Arial,sans-serif"
         font-size="14.00"
         id="text87">SpMM_1D</text>
    </g>
    <!-- TmpSpace StaticAssign&#45;&#45;SpMM1D_0 -->
    <g
       id="edge5"
       class="edge">
      <title
         id="title90">TmpSpace StaticAssign--SpMM1D_0</title>
      <path
         fill="none"
         stroke="black"
         d="M148.99,-144.59C128.06,-132.87 100.14,-117.23 79.86,-105.88"
         id="path92" />
    </g>
    <!-- SpMM2D_1 -->
    <g
       id="node7"
       class="node">
      <title
         id="title95">SpMM2D_1</title>
      <ellipse
         fill="none"
         stroke="black"
         cx="178.3"
         cy="-90"
         rx="53.09"
         ry="18"
         id="ellipse97" />
      <text
         text-anchor="middle"
         x="178.3"
         y="-86.3"
         font-family="Helvetica,Arial,sans-serif"
         font-size="14.00"
         id="text99">SpMM_2D</text>
    </g>
    <!-- TmpSpace StaticAssign&#45;&#45;SpMM2D_1 -->
    <g
       id="edge6"
       class="edge">
      <title
         id="title102">TmpSpace StaticAssign--SpMM2D_1</title>
      <path
         fill="none"
         stroke="black"
         d="M178.3,-143.7C178.3,-132.85 178.3,-118.92 178.3,-108.1"
         id="path104" />
    </g>
    <!-- SpMM1D_2 -->
    <g
       id="node8"
       class="node">
      <title
         id="title107">SpMM1D_2</title>
      <ellipse
         fill="none"
         stroke="black"
         cx="303.3"
         cy="-90"
         rx="53.09"
         ry="18"
         id="ellipse109" />
      <text
         text-anchor="middle"
         x="303.3"
         y="-86.3"
         font-family="Helvetica,Arial,sans-serif"
         font-size="14.00"
         id="text111">SpMM_1D</text>
    </g>
    <!-- TmpSpace DynAssign&#45;&#45;SpMM1D_2 -->
    <g
       id="edge7"
       class="edge">
      <title
         id="title114">TmpSpace DynAssign--SpMM1D_2</title>
      <path
         fill="none"
         stroke="black"
         d="M399.3,-144.76C378.24,-132.97 349.98,-117.14 329.58,-105.72"
         id="path116" />
    </g>
    <!-- SpMM2D_3 -->
    <g
       id="node9"
       class="node">
      <title
         id="title119">SpMM2D_3</title>
      <ellipse
         fill="none"
         stroke="black"
         cx="428.3"
         cy="-90"
         rx="53.09"
         ry="18"
         id="ellipse121" />
      <text
         text-anchor="middle"
         x="428.3"
         y="-86.3"
         font-family="Helvetica,Arial,sans-serif"
         font-size="14.00"
         id="text123">SpMM_2D</text>
    </g>
    <!-- TmpSpace DynAssign&#45;&#45;SpMM2D_3 -->
    <g
       id="edge8"
       class="edge">
      <title
         id="title126">TmpSpace DynAssign--SpMM2D_3</title>
      <path
         fill="none"
         stroke="black"
         d="M428.3,-143.7C428.3,-132.85 428.3,-118.92 428.3,-108.1"
         id="path128" />
    </g>
    <!-- Sp3MM_1D -->
    <g
       id="node10"
       class="node">
      <title
         id="title131">Sp3MM_1D</title>
      <ellipse
         fill="none"
         stroke="black"
         cx="557.3"
         cy="-90"
         rx="57.69"
         ry="18"
         id="ellipse133" />
      <text
         text-anchor="middle"
         x="557.3"
         y="-86.3"
         font-family="Helvetica,Arial,sans-serif"
         font-size="14.00"
         id="text135">Sp3MM_1D</text>
    </g>
    <!-- TmpSpace DynAssign&#45;&#45;Sp3MM_1D -->
    <g
       id="edge9"
       class="edge">
      <title
         id="title138">TmpSpace DynAssign--Sp3MM_1D</title>
      <path
         fill="none"
         stroke="black"
         d="M458.21,-144.76C479.8,-133.05 508.72,-117.36 529.74,-105.95"
         id="path140" />
    </g>
    <!-- SpMM1D -->
    <g
       id="node13"
       class="node">
      <title
         id="title143">SpMM1D</title>
      <ellipse
         fill="none"
         stroke="black"
         cx="681.3"
         cy="-90"
         rx="48.19"
         ry="18"
         id="ellipse145" />
      <text
         text-anchor="middle"
         x="681.3"
         y="-86.3"
         font-family="Helvetica,Arial,sans-serif"
         font-size="14.00"
         id="text147">SpMM1D</text>
    </g>
    <!-- RBTree&#45;&#45;SpMM1D -->
    <g
       id="edge12"
       class="edge">
      <title
         id="title150">RBTree--SpMM1D</title>
      <path
         fill="none"
         stroke="black"
         d="M681.3,-143.7C681.3,-132.85 681.3,-118.92 681.3,-108.1"
         id="path152" />
    </g>
    <!-- limb_64bit -->
    <g
       id="node14"
       class="node">
      <title
         id="title155">limb_64bit</title>
      <ellipse
         fill="none"
         stroke="black"
         cx="798.3"
         cy="-90"
         rx="51.19"
         ry="18"
         id="ellipse157" />
      <text
         text-anchor="middle"
         x="798.3"
         y="-86.3"
         font-family="Helvetica,Arial,sans-serif"
         font-size="14.00"
         id="text159">limb_64bit</text>
    </g>
    <!-- idxMap&#45;&#45;limb_64bit -->
    <g
       id="edge13"
       class="edge">
      <title
         id="title162">idxMap--limb_64bit</title>
      <path
         fill="none"
         stroke="black"
         d="M798.3,-143.7C798.3,-132.85 798.3,-118.92 798.3,-108.1"
         id="path164" />
    </g>
    <!-- limb_128bit -->
    <g
       id="node16"
       class="node">
      <title
         id="title167">limb_128bit</title>
      <ellipse
         fill="none"
         stroke="black"
         cx="923.3"
         cy="-90"
         rx="55.79"
         ry="18"
         id="ellipse169" />
      <text
         text-anchor="middle"
         x="923.3"
         y="-86.3"
         font-family="Helvetica,Arial,sans-serif"
         font-size="14.00"
         id="text171">limb_128bit</text>
    </g>
    <!-- idxMap&#45;&#45;limb_128bit -->
    <g
       id="edge15"
       class="edge">
      <title
         id="title174">idxMap--limb_128bit</title>
      <path
         fill="none"
         stroke="black"
         d="M822.4,-147.5C843.68,-135.58 874.66,-118.23 896.67,-105.91"
         id="path176" />
    </g>
    <!-- _1D_1 -->
    <g
       id="node15"
       class="node">
      <title
         id="title179">_1D_1</title>
      <ellipse
         fill="none"
         stroke="black"
         cx="798.3"
         cy="-18"
         rx="53.09"
         ry="18"
         id="ellipse181" />
      <text
         text-anchor="middle"
         x="798.3"
         y="-14.3"
         font-family="Helvetica,Arial,sans-serif"
         font-size="14.00"
         id="text183">SpMM_1D</text>
    </g>
    <!-- limb_64bit&#45;&#45;_1D_1 -->
    <g
       id="edge14"
       class="edge">
      <title
         id="title186">limb_64bit--_1D_1</title>
      <path
         fill="none"
         stroke="black"
         d="M798.3,-71.7C798.3,-60.85 798.3,-46.92 798.3,-36.1"
         id="path188" />
    </g>
    <!-- _1D_2 -->
    <g
       id="node17"
       class="node">
      <title
         id="title191">_1D_2</title>
      <ellipse
         fill="none"
         stroke="black"
         cx="923.3"
         cy="-18"
         rx="53.09"
         ry="18"
         id="ellipse193" />
      <text
         text-anchor="middle"
         x="923.3"
         y="-14.3"
         font-family="Helvetica,Arial,sans-serif"
         font-size="14.00"
         id="text195">SpMM_1D</text>
    </g>
    <!-- limb_128bit&#45;&#45;_1D_2 -->
    <g
       id="edge16"
       class="edge">
      <title
         id="title198">limb_128bit--_1D_2</title>
      <path
         fill="none"
         stroke="black"
         d="M923.3,-71.7C923.3,-60.85 923.3,-46.92 923.3,-36.1"
         id="path200" />
    </g>
    <!-- _1D_0 -->
  </g>
</svg>
